Nick,Message,Timestamp
kmart301,this is great,2019-01-22 20:47:35
xlr3dlx,yall are goin too need supplies,2019-01-22 20:47:39
mishilo,@jghosty look at ben :d,2019-01-22 20:47:40
jghosty,i am crying,2019-01-22 20:47:42
cathia92,it is,2019-01-22 20:47:43
adearx,:d,2019-01-22 20:47:43
hector2jz,ninja the drinking pirate,2019-01-22 20:47:43
burgleyourturts,ninja sound different or is just me?,2019-01-22 20:47:45
jghosty,show me everyone thank you,2019-01-22 20:47:45
imtotallynotelijah,hi,2019-01-22 20:47:49
thefruit,i really hope this goes on yt,2019-01-22 20:47:49
celestialmews,hiiiiiiiii jess,2019-01-22 20:47:50
natanelelik,@lps1515 :(,2019-01-22 20:47:51
xlr3dlx,open your map,2019-01-22 20:47:53
relentlessbandit,@jghosty,2019-01-22 20:47:54
socutean,explain purpose of game,2019-01-22 20:47:59
imnesto,yo,2019-01-22 20:48:03
th3r3dd3vils12,crying @jghosty :d,2019-01-22 20:48:04
kmart301,:d,2019-01-22 20:48:06
natanelelik,:(,2019-01-22 20:48:06
shuyaku_,love this,2019-01-22 20:48:10
jumbalovepvp,"@ninja jess has spoken, you must obey. :)",2019-01-22 20:48:11
nanonano,island :P,2019-01-22 20:48:13
jghosty,oh my god tim laughing my ass off laughing my ass off laughing my ass off,2019-01-22 20:48:15
riproar,ho,2019-01-22 20:48:15
suffer_n,yar???,2019-01-22 20:48:16
oneshot2killz9,epic fn moment,2019-01-22 20:48:17
adearx,@socutean sink to missions,2019-01-22 20:48:24
jrock9589,character lmaooo,2019-01-22 20:48:26
celestialmews,:d,2019-01-22 20:48:29
imnesto,laughing my ass off,2019-01-22 20:48:29
adearx,do *,2019-01-22 20:48:30
nanonano,raise the anchor :P,2019-01-22 20:48:32
xthefigx,crew ever,2019-01-22 20:48:33
jghosty,is ben the grandpa??,2019-01-22 20:48:34
cr3amwh3at,ben's character may croak at any moment,2019-01-22 20:48:42
mishilo,@jghosty yup lmfaoo,2019-01-22 20:48:44
wheels03,i'm actually digging the aesthetics of this game :p,2019-01-22 20:48:44
dat_maggic_juice,yup @jghosty :d,2019-01-22 20:48:45
brycecox23,laughing my ass off,2019-01-22 20:48:49
natanelelik,testicsails,2019-01-22 20:48:50
zantomzerolive,put tim in the brig!!,2019-01-22 20:48:52
th3r3dd3vils12,old man lupo @jghosty,2019-01-22 20:48:52
texa,other way,2019-01-22 20:48:52
texa,:d,2019-01-22 20:48:54
tsdkiller,ghost shipped,2019-01-22 20:48:54
mlsto,:d,2019-01-22 20:48:56
dighumancentipede,its going to be so funny when summit gets on and destroys this crew,2019-01-22 20:48:57
suffer_n,needs more peg leg :),2019-01-22 20:48:57
kemli,yup he's old toothless :d,2019-01-22 20:48:58
churchchickn,ghost ship,2019-01-22 20:49:01
nanonano,to adventure,2019-01-22 20:49:04
imtotallynotelijah,the after dark thing around his face cam isnt centered,2019-01-22 20:49:08
texa,:d,2019-01-22 20:49:08
xgodfather237,go tot the skull in the sky,2019-01-22 20:49:10
vbigd60,ofc tim man looks just like him,2019-01-22 20:49:10
footballn4life,hello ms. ninja wife jess,2019-01-22 20:49:11
mlsto,wrong way tyler :d,2019-01-22 20:49:11
brycecox23,so much better then fortnite!!!!,2019-01-22 20:49:12
natanelelik,@mlsto egg,2019-01-22 20:49:13
riproar,what is he drinking out of? :d,2019-01-22 20:49:18
footballn4life,mrs.*,2019-01-22 20:49:19
lps1515,hey hottie jess :),2019-01-22 20:49:20
king1ndica,@brycecox23 :d,2019-01-22 20:49:23
luedawg,meg,2019-01-22 20:49:25
vbigd60,thus us so much worse then fortnite!!!!,2019-01-22 20:49:29
andersonkirvan,sounds like pirates,2019-01-22 20:49:30
texa,shooooooooooot,2019-01-22 20:49:33
adearx,@tsdkiller ghost ship would be too much for,2019-01-22 20:49:34
natanelelik,:(,2019-01-22 20:49:35
texa,:d,2019-01-22 20:49:35
texa,laughing my ass off,2019-01-22 20:49:37
skunkz15,please turn off the lanterns :d,2019-01-22 20:49:39
mishilo,@lps1515 hold ur bud,2019-01-22 20:49:40
kemli,:d,2019-01-22 20:49:40
cr3amwh3at,:d,2019-01-22 20:49:40
niri9177,yes,2019-01-22 20:49:40
nightfox_kilo,:d,2019-01-22 20:49:42
fikoeos,:d,2019-01-22 20:49:42
wheels03,:d,2019-01-22 20:49:43
shadowblujay,:d,2019-01-22 20:49:43
xplosion1996,:d,2019-01-22 20:49:44
texa,:d,2019-01-22 20:49:44
barbxlahey,:d,2019-01-22 20:49:46
erickdolo,:d,2019-01-22 20:49:48
nanonano,cannons ready,2019-01-22 20:49:49
jrock9589,leeeeeroooooy jenkins!!!,2019-01-22 20:49:49
frostywhite,lulu,2019-01-22 20:49:51
adearx,oh well,2019-01-22 20:49:52
pixelmh,:d,2019-01-22 20:49:53
suffer_n,"dont dooo it , dont do it , ive gottaaa dooo itttttt",2019-01-22 20:49:53
flashey,:d,2019-01-22 20:49:54
frostywhite,ninjarare,2019-01-22 20:49:59
cathia92,grandpa lupo :d,2019-01-22 20:50:00
erattictv,:(,2019-01-22 20:50:00
natanelelik,hold fire hold fuckin' fire,2019-01-22 20:50:02
figjam300,:d,2019-01-22 20:50:02
mishilo,i might,2019-01-22 20:50:04
barbxlahey,ninjarare,2019-01-22 20:50:05
frostywhite,ninja is thirsty for the action,2019-01-22 20:50:11
nanonano,they chilling,2019-01-22 20:50:13
johninsocal,:d,2019-01-22 20:50:14
andersonkirvan,patch up the hole,2019-01-22 20:50:15
hypeo8,lmao!,2019-01-22 20:50:15
texa,ghost ship laughing my ass off,2019-01-22 20:50:18
swordoh3av3n,laughing my ass off,2019-01-22 20:50:19
kmart301,what an idiot :d,2019-01-22 20:50:20
iamactuallyjustin,ninjarare,2019-01-22 20:50:21
nanonano,war,2019-01-22 20:50:22
johninsocal,they ded,2019-01-22 20:50:23
serennnna,oh my god,2019-01-22 20:50:23
barbxlahey,omegalul,2019-01-22 20:50:25
burgleyourturts,get this man some potassium,2019-01-22 20:50:27
mymindspray,omegalul oh no,2019-01-22 20:50:28
riproar,there aren't enough bananas in the world :d,2019-01-22 20:50:28
toaster0420,fools are dead asf boy!,2019-01-22 20:50:31
amdadul,go attack ghost ship,2019-01-22 20:50:33
flashey,laughing my ass off here comes the end :d,2019-01-22 20:50:35
speakernation9,arhhhhhh mr matties,2019-01-22 20:50:42
natanelelik,a-a-a-a-a-h-ah i,2019-01-22 20:50:44
erickdolo,:d,2019-01-22 20:50:45
nanonano,chemical warfare,2019-01-22 20:50:46
yungkills,:d,2019-01-22 20:50:53
mrhezikiah,hahaha,2019-01-22 20:50:53
haleyyfitz,sot,2019-01-22 20:50:56
xplosion1996,:d,2019-01-22 20:51:01
wheels03,full stream of ninja caged up :d,2019-01-22 20:51:06
tracyhuynh,:d what a freaking troll,2019-01-22 20:51:09
oneshot2killz9,laughing my ass off that tiny bucket went ham,2019-01-22 20:51:10
kemli,:d,2019-01-22 20:51:13
texa,wot,2019-01-22 20:51:13
nanonano,no more brig,2019-01-22 20:51:14
natanelelik,want my banana?,2019-01-22 20:51:15
relentlessbandit,:d,2019-01-22 20:51:15
nightfox_kilo,:d,2019-01-22 20:51:16
bermudalines,opposite day mindmanners,2019-01-22 20:51:19
random_d1plo,uhhhh,2019-01-22 20:51:24
goskatez,l9l,2019-01-22 20:51:25
xthefigx,ummmmm think you have that reversed buddy,2019-01-22 20:51:26
xdtheg,more like worm island,2019-01-22 20:51:26
sirryxn,ninja playing sea of thieves i am livinggggggggg,2019-01-22 20:51:28
barbxlahey,ninjarare,2019-01-22 20:51:29
hugo_matheu,yeeeeah sea,2019-01-22 20:51:33
dp23,sot and after dark = funniest streams,2019-01-22 20:51:33
a_jokker,after dark?,2019-01-22 20:51:34
sirryxn,well rip comment :d,2019-01-22 20:51:38
texa,laughing my ass off @sirryxn,2019-01-22 20:51:38
nanonano,ghost ship bailed,2019-01-22 20:51:39
b4ttleroy4le5,your good your good your good,2019-01-22 20:51:39
bermudalines,:d,2019-01-22 20:51:40
shiftxking,snakes on a boat,2019-01-22 20:51:41
tracyhuynh,ninj has no idea what the heck hes doing and im living for it. you go glen coco,2019-01-22 20:51:43
natanelelik,"""ninjacreep"" in the chat if you love this game chat!",2019-01-22 20:51:44
hector2jz,ninja is a savage lmaooo,2019-01-22 20:51:46
random_d1plo,worm island,2019-01-22 20:51:49
mynameisjuner,i love watching ninja play this,2019-01-22 20:51:49
sirryxn,@texa thats a pepe hands omegalul,2019-01-22 20:51:50
suffer_n,ninjarare,2019-01-22 20:51:51
zaby42,i got a snake peninsula for you right here,2019-01-22 20:51:51
dr_tronz,after dark at 2pm :d,2019-01-22 20:51:54
xgodfather237,say pink weird,2019-01-22 20:51:59
barbxlahey,ninjarare,2019-01-22 20:52:00
imtotallynotelijah,[+],2019-01-22 20:52:00
king1ndica,@natanelelik what is the opposite of that emote?,2019-01-22 20:52:02
haleyyfitz,look at all of these blue in chat,2019-01-22 20:52:05
iamactuallyjustin,ninjarare,2019-01-22 20:52:07
warrior4god,fiiiiiirrrrrreeeeee,2019-01-22 20:52:07
wheels03,beautiful water,2019-01-22 20:52:12
theyetiman05,are you drinking kraken rum??,2019-01-22 20:52:12
oneshot2killz9,hhahahaha,2019-01-22 20:52:15
mishilo,arrr,2019-01-22 20:52:17
natanelelik,@king1ndica he doesn't have one,2019-01-22 20:52:17
figjam300,the game look beautiful,2019-01-22 20:52:17
misterlerma,laughing my ass off,2019-01-22 20:52:18
cgonz,laughing my ass off,2019-01-22 20:52:20
kemli,:d,2019-01-22 20:52:20
cr3amwh3at,arrrrrrggghh,2019-01-22 20:52:20
graciee_babyy,:d,2019-01-22 20:52:20
suffer_n,ya yayya yarrr :P,2019-01-22 20:52:22
xplosion1996,:d,2019-01-22 20:52:22
tyrafin,:d,2019-01-22 20:52:22
iamactuallyjustin,heh heh yarrr,2019-01-22 20:52:22
misterlerma,peen,2019-01-22 20:52:24
shadowblujay,:d,2019-01-22 20:52:24
mymindspray,:d,2019-01-22 20:52:26
ddiggler1776,is this a paid segment by sea of thieves? dr dis and ninja are both playing it. seems odd.,2019-01-22 20:52:28
relentlessbandit,what :d,2019-01-22 20:52:28
nanonano,wood & banana,2019-01-22 20:52:28
happyk1llmor3,"lmfao, love that you're announcing what it is",2019-01-22 20:52:29
fevilon,drunk stream this early whoa whoa whoa,2019-01-22 20:52:30
scrublord_supreme,family guy reference :d,2019-01-22 20:52:30
texa,laughing my ass off,2019-01-22 20:52:30
texass,:d,2019-01-22 20:52:31
burgleyourturts,tim damage,2019-01-22 20:52:32
barbxlahey,:d,2019-01-22 20:52:32
chadbrobertson,timdmg,2019-01-22 20:52:32
celestialmews,:d,2019-01-22 20:52:34
mrkapowski,hahaaa quality entertainment,2019-01-22 20:52:34
amdadul,ez,2019-01-22 20:52:35
kmart301,he has one,2019-01-22 20:52:36
kemli,fastest find ever :d,2019-01-22 20:52:36
texa,he actually did,2019-01-22 20:52:36
drbart,build a 1x1 forehead,2019-01-22 20:52:36
fevilon,ok i don't mind this,2019-01-22 20:52:38
warchant,:d,2019-01-22 20:52:40
luedawg,:d sypher,2019-01-22 20:52:43
fikoeos,i love this game,2019-01-22 20:52:44
mannuck2469,fps counter please,2019-01-22 20:52:45
amdadul,ez clap,2019-01-22 20:52:45
whalexo,@ddiggler1776 it legally has to say if its paid,2019-01-22 20:52:46
cathia92,:d,2019-01-22 20:52:46
rich_troll,hes drunk,2019-01-22 20:52:47
goskatez,:d,2019-01-22 20:52:48
happyk1llmor3,slow mode is so weird!,2019-01-22 20:52:48
aknudsen005,just build forhead,2019-01-22 20:52:50
nightfox_kilo,wtf?!?!? he just found a random chest,2019-01-22 20:52:53
mishilo,of have random chest on it,2019-01-22 20:52:53
frostywhite,:d you dont actually have a treasure chest,2019-01-22 20:52:54
smoofie2k,plz swear,2019-01-22 20:52:55
natanelelik,"@scrublord_supreme no family friendly on after dark, we swearin we fuckin' thoomin",2019-01-22 20:52:55
nanonano,booty :),2019-01-22 20:52:55
fevilon,@happyk1llmor3 yeah! :(,2019-01-22 20:52:57
barbxlahey,get rekted sypher,2019-01-22 20:52:58
luedawg,yes,2019-01-22 20:53:00
smoofie2k,fuck laughing my ass off,2019-01-22 20:53:00
warchant,streamer loot,2019-01-22 20:53:02
kemli,he's just that good :d,2019-01-22 20:53:03
nanonano,found a booty :),2019-01-22 20:53:05
iamactuallyjustin,i have no idea what's going on but this is mad funny,2019-01-22 20:53:07
shiftxking,argggggg,2019-01-22 20:53:09
thetankcr3,wow,2019-01-22 20:53:10
shadowblujay,:d,2019-01-22 20:53:11
smoofie2k,fuck a dick,2019-01-22 20:53:11
flashey,pog,2019-01-22 20:53:12
scrublord_supreme,@natanelelik omegayikes,2019-01-22 20:53:12
xplosion1996,:d,2019-01-22 20:53:12
riproar,don't tell him where you found it. :d,2019-01-22 20:53:13
natanelelik,@smoofie2k it turn you on when ninja swears what the fuck,2019-01-22 20:53:14
warrior4god,tim damage,2019-01-22 20:53:14
heavyweighthero,:d,2019-01-22 20:53:14
adearx,@nightfox_kilo that chest is usually always there,2019-01-22 20:53:14
kmart301,har har har,2019-01-22 20:53:16
happyk1llmor3,yarrrrrr,2019-01-22 20:53:17
trepidanos,can i get you on my crew? i need someone who is willing to aggro skelly ships. :d,2019-01-22 20:53:18
cr3amwh3at,laughing my ass off arrrrggghhhh,2019-01-22 20:53:19
amdadul,:d,2019-01-22 20:53:19
oneshot2killz9,hahah,2019-01-22 20:53:20
goskatez,wut,2019-01-22 20:53:22
niri9177,tim can never be the captain because he will just repair the enemy ship,2019-01-22 20:53:23
tracyhuynh,:d,2019-01-22 20:53:25
streater,been waiting for this stream for a long time,2019-01-22 20:53:26
kleiniken,you can find random chests,2019-01-22 20:53:27
barbxlahey,ninja knows how to find all the booty arghh ninjarare,2019-01-22 20:53:28
ddiggler1776,"@whalexo so weird,thanks",2019-01-22 20:53:29
thetankcr3,is the sponsored? or just for fun,2019-01-22 20:53:30
thewoodysamurai,laughing my ass off,2019-01-22 20:53:31
thelazieststreamer,loot can randomly spawn on @ninja,2019-01-22 20:53:34
nanonano,arrrr,2019-01-22 20:53:36
dighumancentipede,just for fun,2019-01-22 20:53:41
princegiff,whatcha drinking,2019-01-22 20:53:41
itsjhettnotjet,this is the ninja we need hahahhaha,2019-01-22 20:53:44
nanonano,true pirate,2019-01-22 20:53:50
flashey,@thetankcr3 just for fun,2019-01-22 20:53:53
king1ndica,@thetankcr3 seems like the streamers are salty about the zombies still,2019-01-22 20:53:53
thetankcr3,battle royale?,2019-01-22 20:53:54
strictly_steve,:d,2019-01-22 20:53:59
patronize,pepepls,2019-01-22 20:54:04
andersonkirvan,i where it is,2019-01-22 20:54:06
smoofie2k,"you followed ninja 4 years ago (april 9, 2017 7:37 am)",2019-01-22 20:54:07
thetankcr3,@king1ndica i mean if you played with you would understand,2019-01-22 20:54:11
andersonkirvan,turn right,2019-01-22 20:54:12
smoofie2k,:),2019-01-22 20:54:12
natanelelik,skull trooper :),2019-01-22 20:54:14
xplosion1996,zombiekappa,2019-01-22 20:54:16
theunforgiver,the new battlepass this time around seems weird!,2019-01-22 20:54:19
natanelelik,zombiekappa,2019-01-22 20:54:23
texa,dont do it :(,2019-01-22 20:54:26
andersonkirvan,its in the water,2019-01-22 20:54:27
king1ndica,"@thetankcr3 i have, there is also normal squades",2019-01-22 20:54:27
superhercyt,yo i all was wanted this game,2019-01-22 20:54:28
kasevir,awwwww,2019-01-22 20:54:28
mlsto,:),2019-01-22 20:54:29
luedawg,haha,2019-01-22 20:54:29
nanonano,zombie,2019-01-22 20:54:31
thefruit,:d,2019-01-22 20:54:32
thetankcr3,@king1ndica oh yeahhhh,2019-01-22 20:54:39
trepidanos,you can find random loot beached or random on,2019-01-22 20:54:40
kemli,:) fatten him up,2019-01-22 20:54:41
randyevo,yesssss,2019-01-22 20:54:41
oneshot2killz9,ninj drunk,2019-01-22 20:54:44
nanonano,:),2019-01-22 20:54:46
thetankcr3,i like the fog in fortnite,2019-01-22 20:54:48
capt4incobb,:d,2019-01-22 20:54:52
mymindspray,:),2019-01-22 20:54:53
natanelelik,:d,2019-01-22 20:54:55
messdog007akatr,take what you can give nothin back,2019-01-22 20:55:00
cathia92,:),2019-01-22 20:55:03
jrock9589,just build,2019-01-22 20:55:06
pierceprotv,just build,2019-01-22 20:55:07
steviecharm8771,just build forehead,2019-01-22 20:55:10
bmmathe,build a ramp to it,2019-01-22 20:55:11
trepidanos,"also, check the depths around the for mermaid statues. they give gems upon defeat",2019-01-22 20:55:13
oneshot2killz9,drunk ninj spam chat everyone,2019-01-22 20:55:15
socutean,is this a new game?,2019-01-22 20:55:17
nanonano,:) ready for butcher,2019-01-22 20:55:19
cathia92,take the pig with u ninja,2019-01-22 20:55:19
iamactuallyjustin,hold up.. wait a minute,2019-01-22 20:55:19
texa,:d,2019-01-22 20:55:22
kemli,:d,2019-01-22 20:55:22
warchant,:d,2019-01-22 20:55:23
celestialmews,:d,2019-01-22 20:55:26
amdadul,:d,2019-01-22 20:55:26
randyevo,pull out your compass,2019-01-22 20:55:27
shadowblujay,:d,2019-01-22 20:55:28
erickdolo,:d,2019-01-22 20:55:29
natanelelik,:),2019-01-22 20:55:30
pierceprotv,drunk ninj,2019-01-22 20:55:31
nuganomic,:d,2019-01-22 20:55:31
warrior4god,pig,2019-01-22 20:55:35
shiftxking,no mats,2019-01-22 20:55:37
pierceprotv,drunk ninj,2019-01-22 20:55:37
snugglesniper,can you stream snipe in this game?,2019-01-22 20:55:38
th3r3dd3vils12,dont slip tim :d,2019-01-22 20:55:39
mlsto,:d,2019-01-22 20:55:40
warchant,hahahaha,2019-01-22 20:55:40
nagito77,why he play ses of thiefies,2019-01-22 20:55:41
amdadul,hahaha,2019-01-22 20:55:43
haleyyfitz,:d,2019-01-22 20:55:44
manduttan,hahahahhaha,2019-01-22 20:55:47
skillin15,this is,2019-01-22 20:55:48
texa,:d,2019-01-22 20:55:49
thefruit,lool,2019-01-22 20:55:50
shadowblujay,loool,2019-01-22 20:55:52
mishilo,:d,2019-01-22 20:55:52
kmart301,omegalul,2019-01-22 20:55:54
mymindspray,omegalul,2019-01-22 20:55:56
texass,tim... :d,2019-01-22 20:55:57
fikoeos,booty,2019-01-22 20:55:58
manduttan,you dummy!!!!!,2019-01-22 20:55:58
itsjhettnotjet,hahahaha,2019-01-22 20:55:59
oneshot2killz9,dont blame him he is obese,2019-01-22 20:56:00
shiftxking,:d,2019-01-22 20:56:01
chadbrobertson,booty pog,2019-01-22 20:56:01
thewoodysamurai,bahahahaa,2019-01-22 20:56:01
mishilo,booty,2019-01-22 20:56:04
relentlessbandit,rap god pog,2019-01-22 20:56:07
princegiff,wait what are you drinking :d,2019-01-22 20:56:09
nagito77,why he not play fortnite,2019-01-22 20:56:09
heyitsblink,hahah you dummy :d,2019-01-22 20:56:09
itsjhettnotjet,tim is the pirate of all time,2019-01-22 20:56:09
shuyaku_,:d,2019-01-22 20:56:10
ev_erday,tim really slow he?,2019-01-22 20:56:11
zaby42,15 men and a dead mans chest! yohoho and a bottle of rum!,2019-01-22 20:56:14
fathersheep21,gimmee da booty,2019-01-22 20:56:18
blackknight_1992,hahaha,2019-01-22 20:56:18
nanonano,filled with booty :),2019-01-22 20:56:21
whobud,yoho,2019-01-22 20:56:22
itsjhettnotjet,black beard? more like red beard,2019-01-22 20:56:26
tommygunz1017,why is everyone playing this game? i love it and i play a lot of it by why now,2019-01-22 20:56:33
kleiniken,i think that is gonna tell you where treasure is. that journal is,2019-01-22 20:56:41
vergud2,booty,2019-01-22 20:56:41
mooreduplicator,hi :),2019-01-22 20:56:44
notorious_okn,title should have been take what yeee want,2019-01-22 20:56:45
williest01,pink beard,2019-01-22 20:56:48
mishilo,@tommygunz1017 got of exposure from summit,2019-01-22 20:56:50
jamieblud,:d,2019-01-22 20:56:58
daredevil_rl,@tommygunz1017 summit brought new life to it,2019-01-22 20:57:00
tsdkiller,nooo,2019-01-22 20:57:03
messdog007akatr,why arent you playing fortnite questions start :d,2019-01-22 20:57:07
dontchano,laughing my ass off,2019-01-22 20:57:10
thefruit,laughing my ass off,2019-01-22 20:57:11
dekeita,you need to like stop at the entrance a right click the map to hold it up,2019-01-22 20:57:11
burgleyourturts,hahahaha,2019-01-22 20:57:11
xplosion1996,:d,2019-01-22 20:57:12
celestialmews,:d,2019-01-22 20:57:12
andersonkirvan,for da last time its under water,2019-01-22 20:57:14
champi0n,:d,2019-01-22 20:57:15
buckle0this,calm down zelda!,2019-01-22 20:57:18
fikoeos,:d,2019-01-22 20:57:18
mishilo,ninj :d,2019-01-22 20:57:18
dat_maggic_juice,lmaoooooooooooo,2019-01-22 20:57:21
succmesideways_,tim acting like it was his idea rolling on the floor laughing,2019-01-22 20:57:22
notorious_okn,:d,2019-01-22 20:57:26
drwolfeter,laughing my ass off,2019-01-22 20:57:27
oneshot2killz9,this is you dont drink and shoot,2019-01-22 20:57:28
succmesideways_,s/o chat,2019-01-22 20:57:28
njdevs07,you have to read the map,2019-01-22 20:57:29
serennnna,its underwater,2019-01-22 20:57:33
cathia92,:d,2019-01-22 20:57:36
atatlambo,:d,2019-01-22 20:57:38
toaster0420,thats sypher running away from ninja in that painting,2019-01-22 20:57:40
bermudalines,laughing my ass off,2019-01-22 20:57:42
nuganomic,gimme the loot,2019-01-22 20:57:46
mishilo,i bet sypher is so triggered :d,2019-01-22 20:57:47
texa,these riddles arent that hard just read,2019-01-22 20:57:49
atlasjustin,laughing my ass off why everyone play this game all of a sudden,2019-01-22 20:57:51
mannuck2469,its driving me crazy to not say how to do this quest... i must have done it at least 15 times,2019-01-22 20:57:52
mooreduplicator,keep up the good work ninja :d,2019-01-22 20:57:53
thewoodysamurai,@toaster0420 laughing my ass off,2019-01-22 20:57:53
nanonano,read the riddle,2019-01-22 20:57:55
daredevil_rl,go raid some peoples,2019-01-22 20:57:56
so_icey1017,back in the brig,2019-01-22 20:57:56
hector2jz,ninja cant hang,2019-01-22 20:57:59
toaster0420,:d,2019-01-22 20:58:00
riproar,i'm not sure there's enough to keep ninja occupied in this game. :d,2019-01-22 20:58:04
oneshot2killz9,that was a lot of cums,2019-01-22 20:58:05
notorious_okn,@texa ikr just read :),2019-01-22 20:58:08
capt4incobb,whats the thing say?,2019-01-22 20:58:11
drdoobie0420,is that not a cage for a pig??,2019-01-22 20:58:11
luedawg,watcha drinkin?,2019-01-22 20:58:13
texa,just read :),2019-01-22 20:58:14
buckle0this,ninja just wants to shoot something :d,2019-01-22 20:58:14
celestialmews,:d,2019-01-22 20:58:19
texa,no ninja play music for it,2019-01-22 20:58:26
texa,lolol,2019-01-22 20:58:28
xplosion1996,:d,2019-01-22 20:58:30
pierceprotv,it's funny that ubisoft could have done this with assassins creed black flag,2019-01-22 20:58:30
suffer_n,:d,2019-01-22 20:58:31
warchant,hahaha,2019-01-22 20:58:31
kemli,hahahahah,2019-01-22 20:58:32
th3r3dd3vils12,ull,2019-01-22 20:58:32
mishilo,@riproar wait till he gets the hang of it and starts pvp,2019-01-22 20:58:32
sirryxn,bullet prrof snake,2019-01-22 20:58:32
raider_tommy,@ninja if you play youor instrument the snames can't bite you,2019-01-22 20:58:33
amdadul,:d,2019-01-22 20:58:35
fikoeos,:d,2019-01-22 20:58:35
rtperk,:d,2019-01-22 20:58:36
tommygunz1017,i never thought ninja would play this but he is and im so happy,2019-01-22 20:58:36
virgo09,:d,2019-01-22 20:58:37
kmart301,laughing my ass off,2019-01-22 20:58:37
johninsocal,don't with snakes,2019-01-22 20:58:39
cr3amwh3at,that scream :d,2019-01-22 20:58:40
nanonano,play music to snake :(,2019-01-22 20:58:40
pierceprotv,stay away from the snake,2019-01-22 20:58:41
burgleyourturts,how that thing survive a shot to the head,2019-01-22 20:58:44
so_icey1017,:d,2019-01-22 20:58:46
mymindspray,lu,2019-01-22 20:58:46
goskatez,:d,2019-01-22 20:58:46
celestialmews,that's going to get him every time isn't it? :d,2019-01-22 20:58:51
trepidanos,a blue can be killed alone. red mermaids are most valuable,2019-01-22 20:58:52
andersonkirvan,ur so dumb cause if u listen to me u would be there,2019-01-22 20:58:53
smaza_xd,hahahhahha,2019-01-22 20:58:53
youngsinatra2334,:d,2019-01-22 20:58:54
thetankcr3,:d,2019-01-22 20:58:54
cathia92,ahaha,2019-01-22 20:58:55
trsh_father,i don't either i hate snakes,2019-01-22 20:58:55
warchant,ez,2019-01-22 20:58:58
probablymylastlogin,im tired of these mother fucking snakes in the mother fuckin game @ninja,2019-01-22 20:59:03
shadowblujay,:d,2019-01-22 20:59:06
luedawg,laughing my ass off lupo knew,2019-01-22 20:59:06
iimtaasty,:d,2019-01-22 20:59:09
cr3amwh3at,so toxic i love it,2019-01-22 20:59:09
notorious_okn,ninja is looking for booty im telling jess :),2019-01-22 20:59:09
noahf25,bro i legit just threw my phone when the snake turned :d,2019-01-22 20:59:11
drwolfeter,gangbanged,2019-01-22 20:59:14
mlsto,in b4 shark eats him and the gem,2019-01-22 20:59:16
texass,yoink,2019-01-22 20:59:19
nanonano,mermaid gem :),2019-01-22 20:59:20
drwolfeter,yeeted,2019-01-22 20:59:25
shuyaku_,my boat now,2019-01-22 20:59:26
sirryxn,just swim faster :),2019-01-22 20:59:28
mmmmichael,@andersonkirvan calling a streamer dumb cause he dodged you :d sad,2019-01-22 20:59:30
parkerfn,after dark?,2019-01-22 20:59:33
capt4incobb,whats the riddle say?,2019-01-22 20:59:36
mannuck2469,they were in the tunnel... all they had to do was hol;d the map up...,2019-01-22 20:59:40
trepidanos,you can sell that to any of the 3 factions.,2019-01-22 20:59:42
notorious_okn,just google it :),2019-01-22 20:59:44
probablymylastlogin,why are you swimming so slow when you cant use your arms to swim hmmm,2019-01-22 20:59:46
chadbrobertson,what is that enormous bottle laughing my ass off,2019-01-22 20:59:48
shadowblujay,yarrr,2019-01-22 20:59:50
mooreduplicator,glad to see ninja playing sea of thieves,2019-01-22 20:59:50
oneshot2killz9,watch out for the /\/ idea,2019-01-22 20:59:52
atlasjustin,can i get that snake clip?,2019-01-22 20:59:54
natanelelik,swear words :p,2019-01-22 20:59:56
shadowblujay,mods,2019-01-22 20:59:57
hokki,lit,2019-01-22 21:00:01
natanelelik,:(,2019-01-22 21:00:02
shadowblujay,:(,2019-01-22 21:00:03
so_icey1017,a 40 ?,2019-01-22 21:00:04
trepidanos,it is a sapphire! dx,2019-01-22 21:00:04
dannyhenry,uh,2019-01-22 21:00:06
evanftb73,sword plz,2019-01-22 21:00:09
thetankcr3,lit,2019-01-22 21:00:11
cathia92,is girls friend,2019-01-22 21:00:11
burgleyourturts,hold up the map in the tunnel so it updates??,2019-01-22 21:00:16
nuganomic,getting immersive,2019-01-22 21:00:21
so_icey1017,ree,2019-01-22 21:00:30
og_cyrax,sometime i just face palm,2019-01-22 21:00:30
fikoeos,dont drown,2019-01-22 21:00:35
urgurlcallmedaddy,ninja lit,2019-01-22 21:00:40
mannuck2469,yea the riddle. you have to hold it up for it to count,2019-01-22 21:00:41
succmesideways_,ninja better then tfue,2019-01-22 21:00:42
joaobr134,oh my god,2019-01-22 21:00:45
bionic203,:d,2019-01-22 21:00:46
buckle0this,ninja just wants to shoot something so bad!,2019-01-22 21:00:46
thefruit,wait,2019-01-22 21:00:47
atlasjustin,lmaoooo,2019-01-22 21:00:47
notorious_okn,my ship now!,2019-01-22 21:00:47
relentlessbandit,@jghosty,2019-01-22 21:00:50
iliqweed,thats what she said,2019-01-22 21:00:53
relentlessbandit,:d,2019-01-22 21:00:55
thetankcr3,is this game like ff,2019-01-22 21:00:56
daredevil_rl,show us your 90s in this game,2019-01-22 21:00:58
b1ack0ut202,love this stream!!!,2019-01-22 21:00:59
notorious_okn,wooooaaaah buddy,2019-01-22 21:01:00
atlasjustin,@jghosty,2019-01-22 21:01:01
texa,laughing my ass off,2019-01-22 21:01:01
shadowblujay,:d,2019-01-22 21:01:03
hokki,woahh,2019-01-22 21:01:03
twitzh,mods,2019-01-22 21:01:05
goskatez,wut,2019-01-22 21:01:05
mishilo,you take?,2019-01-22 21:01:05
b4ttleroy4le5,you were in the right spot but you need to play music by where you shot the eplosive barrel @ninja,2019-01-22 21:01:09
tommygunz1017,yum,2019-01-22 21:01:09
noahf25,@thetankcr3 not even close,2019-01-22 21:01:11
luedawg,@ninja all you have to do is read your quest by the entrance to that tunnel,2019-01-22 21:01:11
texa,:d put it in the captains room,2019-01-22 21:01:16
aorta73,lmaoo he just threw it in a corner,2019-01-22 21:01:18
atlasjustin,bananas on boats :),2019-01-22 21:01:23
redmsb,hold up the map in the tunnel,2019-01-22 21:01:24
nick15_ttv,put valuables in the captains quarters,2019-01-22 21:01:25
texa,:d no one is ever gonna find that shit,2019-01-22 21:01:31
mannuck2469,they need to hold up the riddle not just have it out to update,2019-01-22 21:01:32
shuyaku_,laughing my ass off,2019-01-22 21:01:34
burgleyourturts,@ninja read map in tunnel entrance to update,2019-01-22 21:01:35
mishilo,that gem is gunna get lost :d,2019-01-22 21:01:37
buckle0this,get more ammo,2019-01-22 21:01:38
evanftb73,sword!,2019-01-22 21:01:39
kleiniken,by the cannon balls,2019-01-22 21:01:45
nelsondal3,get sword,2019-01-22 21:01:46
hokki,rip gem,2019-01-22 21:01:49
joeyfontana,ninja tryna swoop those summit subs laughing my ass off,2019-01-22 21:01:53
daredevil_rl,fortnite should replace bandages with bananas for healing,2019-01-22 21:01:54
mishilo,its kinda bright we might be good,2019-01-22 21:01:58
dp23,sword,2019-01-22 21:02:03
slaydimes,put gem in captains room,2019-01-22 21:02:04
jrock9589,this game looks interesting but its pretty slow,2019-01-22 21:02:09
jimmyouidiot,ammo,2019-01-22 21:02:21
tommygunz1017,@jrock9589 its so fun,2019-01-22 21:02:27
celestialmews,:d,2019-01-22 21:02:30
xthefigx,you wont,2019-01-22 21:02:32
niri9177,shoot it,2019-01-22 21:02:36
whobud,find it hard to believe ninja is gonna have the patience for this,2019-01-22 21:02:36
random_d1plo,shoot the barrel,2019-01-22 21:02:37
texa,laughing my ass off,2019-01-22 21:02:38
pppeaches,aye matey ninj!,2019-01-22 21:02:40
redmsb,hold the map in the tunnel,2019-01-22 21:02:41
pjg321991,:d,2019-01-22 21:02:46
mishilo,bro :d,2019-01-22 21:02:47
spappygram,ninja is the chaotic evil pirate.,2019-01-22 21:02:48
probablymylastlogin,@jrock9589 the fun is the building tension while getting to the next thing to do. definitely feels slower when spectating than playing,2019-01-22 21:02:49
nanonano,do it,2019-01-22 21:02:54
shuyaku_,laughing my ass off,2019-01-22 21:02:58
texa,hes unhinged,2019-01-22 21:02:59
pierceprotv,"ninj time to camp in tortuga, you're drunk mate",2019-01-22 21:03:04
jimmyouidiot,@ninja find the tunnel and read your map in the tunnel to activate it,2019-01-22 21:03:09
nanonano,just do it,2019-01-22 21:03:11
okokemilyrose,hiii ninj missed ya,2019-01-22 21:03:13
mymindspray,put him in the brig,2019-01-22 21:03:15
holydankfrank,hardy ha,2019-01-22 21:03:17
borndragon_00,day fade ninja :d,2019-01-22 21:03:23
phitern,always forget i can chat :d,2019-01-22 21:03:27
shiftxking,im just waiting for ninja to break the game :d,2019-01-22 21:03:29
frozenjumpr,ninja after dark at 3pm? :d,2019-01-22 21:03:33
buzro,this game is my biggest addiction,2019-01-22 21:03:36
thebakedowl,put lupo in the brig and claim that you found it,2019-01-22 21:03:38
suffer_n,we need a eye patch instead of headband :) \,2019-01-22 21:03:40
raider_tommy,@ninja play your instrument and the snakes cant bite you!!!!!!!!,2019-01-22 21:03:44
brodizzleee,someone has to suck it out,2019-01-22 21:03:46
probablymylastlogin,@frozenjumpr proximity chat. gotta have it up,2019-01-22 21:03:48
xhabibi_,ninja u should smoke bud its a much better alternative than alcohol,2019-01-22 21:03:49
phitern,he said he will always after dark on sea of thieves,2019-01-22 21:03:51
shuyaku_,ninja you drinking rum from a bottle :d,2019-01-22 21:03:54
celedon,@xhabibi_,2019-01-22 21:04:00
figjam300,lupo has to suck the venom out,2019-01-22 21:04:05
probablymylastlogin,@phitern you have to with proximity chat,2019-01-22 21:04:08
buckle0this,lantern,2019-01-22 21:04:11
fatalpanda43,stay sobber@of ninja will bend over,2019-01-22 21:04:11
crissandcasey,this game looks fun,2019-01-22 21:04:14
mannuck2469,how many other pirate legends are in chat?,2019-01-22 21:04:16
kemli,:d,2019-01-22 21:04:20
texa,:d,2019-01-22 21:04:20
i_mystical_i,lata,2019-01-22 21:04:20
xplosion1996,:d,2019-01-22 21:04:21
phitern,@probablymylastlogin whats proximity chat?,2019-01-22 21:04:25
kmart301,scaredy cat :d,2019-01-22 21:04:30
mishilo,:d,2019-01-22 21:04:32
kemli,perfect backup :d,2019-01-22 21:04:39
fatalpanda43,lata,2019-01-22 21:04:41
mymindspray,:d,2019-01-22 21:04:42
mymindspray,brilliant,2019-01-22 21:04:48
kinggatorgaming9,hi,2019-01-22 21:04:51
shuyaku_,ninja the barrell,2019-01-22 21:04:52
minimacuk,team mate :d,2019-01-22 21:04:55
bigspur101,you have to walk,2019-01-22 21:04:55
typicalpersian,how can you see anything,2019-01-22 21:05:09
notorious_okn,these skeletons fuckin wylin,2019-01-22 21:05:13
chris15620,hello ninja,2019-01-22 21:05:19
makavelii04,wassup pirates,2019-01-22 21:05:30
daredevil_rl,"the after dark overlay should just be replaced with ""rated r"" or should i say ""rated arrrr""",2019-01-22 21:05:31
bigspur101,nice,2019-01-22 21:05:36
wheels03,:p,2019-01-22 21:05:41
mishilo,:p /,2019-01-22 21:05:42
amdadul,ez clap,2019-01-22 21:05:42
xdtheg,worst chest in the game,2019-01-22 21:05:44
trepidanos,he getting the hang of it!,2019-01-22 21:05:48
frozenjumpr,steadfast chest :d,2019-01-22 21:05:49
notorious_okn,:p,2019-01-22 21:05:51
burgleyourturts,what happens to dead people,2019-01-22 21:05:53
noahf25,leedle leedle leedle lee,2019-01-22 21:06:05
og_cyrax,thats dope!,2019-01-22 21:06:05
texa,shh dont tell him chat :d,2019-01-22 21:06:13
trepidanos,so excited to get that chest! love it!,2019-01-22 21:06:15
footballn4life,:P,2019-01-22 21:06:17
fatalpanda43,stay sobber or ninja will make u bend over,2019-01-22 21:06:18
cerberuz67,hi,2019-01-22 21:06:20
frozenjumpr,that chest is worth like 170,2019-01-22 21:06:21
texa,play music,2019-01-22 21:06:35
buzro,that chest is definitely worth millions :),2019-01-22 21:06:35
texa,for the snake,2019-01-22 21:06:37
random_d1plo,skeletons eat bananas confirmed,2019-01-22 21:06:43
spappygram,stop backseating :),2019-01-22 21:06:48
raider_tommy,@ninja play your instrument and the snakes can't bite you!!!!,2019-01-22 21:06:53
trepidanos,"""skeletons can't eat bananas! that's not fair!"" :d",2019-01-22 21:06:53
jedimighter,wow,2019-01-22 21:07:03
frozenjumpr,killing snakes is pointless,2019-01-22 21:07:03
bajapanti_,ninja on sot,2019-01-22 21:07:06
kleiniken,i think i saw a shark,2019-01-22 21:07:06
whobud,im not gonna get anything done today watching ninja play sot,2019-01-22 21:07:10
nanonano,play music to snake,2019-01-22 21:07:11
jedimighter,c,2019-01-22 21:07:15
freedentalwork,he really hates these snakes :d,2019-01-22 21:07:16
crewdrew03,2,2019-01-22 21:07:18
aorta73,"ninja, where'd you put the gem? laughing my ass off",2019-01-22 21:07:24
bajapanti_,yeet,2019-01-22 21:07:24
virgo09,2nd deck at the stern barrels,2019-01-22 21:07:26
streater,where are these new subs at? this is actually really refreshing,2019-01-22 21:07:27
relentlessbandit,perfect dive,2019-01-22 21:07:34
ghost_lazer,realm royal came out on playstation boys,2019-01-22 21:07:34
virgo09,sturn*,2019-01-22 21:07:35
whobud,i mean... snakes are assholes,2019-01-22 21:07:35
footballn4life,wooo,2019-01-22 21:07:36
shuyaku_,laughing my ass off,2019-01-22 21:07:41
bajapanti_,sumsmash were summit 1g at,2019-01-22 21:07:43
shadowblujay,this is relaxing af to watch,2019-01-22 21:07:43
raider_tommy,@ninja if you play an instrument the snakes dont attack,2019-01-22 21:07:46
slaydimes,lm ao,2019-01-22 21:07:47
atlasjustin,ninjayeet ?,2019-01-22 21:07:47
shadowblujay,uwu,2019-01-22 21:07:49
hokki,yeet yeet yeet,2019-01-22 21:07:50
nanonano,did nothing wrong they just want music,2019-01-22 21:07:52
stian_eng,didn't think i was gonna like watching this game but it's litty,2019-01-22 21:07:52
crewdrew03,second deck,2019-01-22 21:07:58
frozenjumpr,@bajapanti_ thats what im saying :d,2019-01-22 21:07:59
barbxlahey,did he finish the quest ?,2019-01-22 21:08:05
wizardxt,"if you store the gunpowder in your crow's nest, you don't have to worry about an accidental damaging your own ship",2019-01-22 21:08:05
makavelii04,no sharks,2019-01-22 21:08:06
trepidanos,"sorry for short stay, but loved the shenanigans. hope to see you guys in the one day!",2019-01-22 21:08:06
figjam300,make tim walk the plank to leave,2019-01-22 21:08:08
iamfivestar,get doc to play,2019-01-22 21:08:10
frostywhite,@stian_eng its cross plat so he gets to pvp open mic xbox kids too haha,2019-01-22 21:08:15
j_weimes,hello,2019-01-22 21:08:28
bajapanti_,@ninja u boat to get weiner raid by 1g sumsmash pepepls,2019-01-22 21:08:40
buckle0this,"you all split the loot, automatically",2019-01-22 21:08:41
kemli,ciao @trepidanos,2019-01-22 21:08:43
ryann,exi is a pleb,2019-01-22 21:08:56
xd_notjoey,yah yeet,2019-01-22 21:08:58
madfastkid69,hi chat,2019-01-22 21:09:05
deerockgames,:d is that sypher? sorry just joined,2019-01-22 21:09:06
kurokyoki,it was on the east island,2019-01-22 21:09:08
gtwombocombo88,just tried out realm royale for the first time. not bad,2019-01-22 21:09:08
buzro,chat has he been to the devils roar yet?,2019-01-22 21:09:09
warrior4god,next to snake chest,2019-01-22 21:09:13
madfastkid69,hi ninja,2019-01-22 21:09:19
papablessyew,@deerockgames yea! sypher lupo and tim,2019-01-22 21:09:27
imgamingrightnow,ew this game sucks,2019-01-22 21:09:31
og_cyrax,@buzro not yet,2019-01-22 21:09:31
minionhypers,something aside from fortnite,2019-01-22 21:09:34
scrublord_supreme,furl the sails,2019-01-22 21:09:35
chris15620,turn off the lights,2019-01-22 21:09:36
greatmight656,oh my god im so happy youre playing this,2019-01-22 21:09:36
imgamingrightnow,:d,2019-01-22 21:09:36
exicalibur,well ryan has a small pp,2019-01-22 21:09:40
whobud,isnt lupo going to the real snake island soon?,2019-01-22 21:09:40
madfastkid69,hi ninja,2019-01-22 21:09:44
deerockgames,@papablessyew sweaty,2019-01-22 21:09:44
djtring,great game,2019-01-22 21:09:45
buzro,@og_cyrax uh oh,2019-01-22 21:09:45
flashey,@buzro arrgh not yet matey,2019-01-22 21:09:51
papablessyew,@deerockgames good times are to ensue,2019-01-22 21:09:54
og_cyrax,dun dun dunnnn!!!!!,2019-01-22 21:09:58
simba770,this is a pretty cool game. i watched summit1g play it to,2019-01-22 21:09:58
kang_bluff,@ninja is this a sea of thieves sponsored stream? i noticed a tweet. multiple streamers are also promoting. just curious.,2019-01-22 21:09:59
atlasjustin,just tack :),2019-01-22 21:10:01
chadbrobertson,the original active aero,2019-01-22 21:10:01
gtwombocombo88,toxic tim,2019-01-22 21:10:03
jaynonymouse,woohoo a great game ahead,2019-01-22 21:10:05
holydankfrank,subscribe to pewdipie,2019-01-22 21:10:05
mannuck2469,you should all go to devils roar... you know... new players.... would be some solid clips dying in that place,2019-01-22 21:10:05
devinw,:d,2019-01-22 21:10:08
shuyaku_,not sponsored; just wanted to play,2019-01-22 21:10:13
tron_leg4cy,:d,2019-01-22 21:10:13
bajapanti_,ninja is no longer a fornite streamer,2019-01-22 21:10:15
janissaryoa8,anchor,2019-01-22 21:10:20
thetankcr3,is their 3rd person on this game?,2019-01-22 21:10:20
twitch_fatguy,thats literally tim oh my god,2019-01-22 21:10:26
njdevil,guy is thicc,2019-01-22 21:10:32
bajapanti_,yahh yeet,2019-01-22 21:10:35
twitch_ge0,hey ninja,2019-01-22 21:10:36
tommygunz1017,@thetankcr3 no,2019-01-22 21:10:37
papablessyew,@thetankcr3 nada,2019-01-22 21:10:40
syndicate318,@kang_bluff if this was a sponsored stream it would be #ad to meet twitch tos,2019-01-22 21:10:41
atlasjustin,family friend tag but its after dark :),2019-01-22 21:10:42
mikeross1,hello everyone!,2019-01-22 21:10:43
thetankcr3,@tommygunz1017 ok,2019-01-22 21:10:43
bajapanti_,@ninja u having fun in sot ?,2019-01-22 21:10:48
og_cyrax,tims character has an oddish on his head? weird,2019-01-22 21:10:54
krispyclo1,lmaooooooooo,2019-01-22 21:10:56
princegiff,nothing like some labelless booze,2019-01-22 21:10:59
whobud,aw that was nice,2019-01-22 21:11:00
trsh_father,hahaha,2019-01-22 21:11:03
wytchokolate,@ninja please cannon launch tim out into the ocean!,2019-01-22 21:11:03
twitch_ge0,@ninja love your streams keep it up!!! love you,2019-01-22 21:11:05
whobud,haha,2019-01-22 21:11:06
gtwombocombo88,half the fun in this game is just pretending to talk & give orders like a pirate,2019-01-22 21:11:08
nanonano,lower the sails :P,2019-01-22 21:11:10
dince22,i need a big fat f bomb from ninja,2019-01-22 21:11:12
madfastkid69,f,2019-01-22 21:11:20
mikeross1,hi,2019-01-22 21:11:22
madfastkid69,bomb,2019-01-22 21:11:25
twitch_ge0,@ninja love your streams keep it up!!! love you,2019-01-22 21:11:44
keyyhun,what the fuck is this?,2019-01-22 21:11:46
flashey,@gtwombocombo88 arrgh agreed matey,2019-01-22 21:11:47
christianj456,the water in this game is so goof,2019-01-22 21:11:47
jrock9589,i want the dark mode ninja teased us with on new years eve lmaoooo,2019-01-22 21:11:51
nanonano,:(,2019-01-22 21:11:52
christianj456,i mean good,2019-01-22 21:11:59
pickledbeet1,you cant sail straight upwind,2019-01-22 21:12:04
christianj456,the water is in this game,2019-01-22 21:12:07
pickledbeet1,much faster,2019-01-22 21:12:12
duneriot,3rd party,2019-01-22 21:12:12
texa,:d,2019-01-22 21:12:21
kemli,:d,2019-01-22 21:12:21
superhercyt,finally some action,2019-01-22 21:12:22
parkerfn,:d,2019-01-22 21:12:24
jrock9589,lmaooooo,2019-01-22 21:12:24
c7_jonas,whats poppin,2019-01-22 21:12:25
valioes,realistic proportions,2019-01-22 21:12:28
random_d1plo,thicc,2019-01-22 21:12:29
amdadul,:d,2019-01-22 21:12:29
blackhammer69er,lol!!,2019-01-22 21:12:32
superhercyt,go kill them!,2019-01-22 21:12:34
gtwombocombo88,here. we. go.,2019-01-22 21:12:35
antoniobassil,:d,2019-01-22 21:12:36
nanonano,boat,2019-01-22 21:12:36
warrior4god,lupo is bigger,2019-01-22 21:12:37
hyperfrinzy_yt,why is your name funniestnine,2019-01-22 21:12:38
holydankfrank,:p,2019-01-22 21:12:38
williest01,whale,2019-01-22 21:12:39
mikeross1,:d,2019-01-22 21:12:40
thefruit,thicc,2019-01-22 21:12:41
christianj456,the graphics in this game are on point,2019-01-22 21:12:41
madfastkid69,ninja why is the stream after dark,2019-01-22 21:12:42
nanonano,:),2019-01-22 21:12:46
young_crr7,:d,2019-01-22 21:12:47
oryo511,:),2019-01-22 21:12:47
bergmeister_86,put some pants on tim,2019-01-22 21:12:49
graciee_babyy,:d,2019-01-22 21:12:52
carpanthers001,:d,2019-01-22 21:12:54
flashey,:d,2019-01-22 21:12:59
whobud,hahaha,2019-01-22 21:13:02
jrock9589,@madfastkid69 hes drinkin,2019-01-22 21:13:03
young_crr7,:d,2019-01-22 21:13:04
njdevil,never let go jack,2019-01-22 21:13:05
greatmight656,im dying :d,2019-01-22 21:13:06
thetankcr3,oh my god i'm actually :d ing,2019-01-22 21:13:08
buckle0this,mermaid,2019-01-22 21:13:09
frozenjumpr,catch mermaid,2019-01-22 21:13:12
superhercyt,laughing my ass off,2019-01-22 21:13:16
kleiniken,sharks gonna kill you,2019-01-22 21:13:19
parkerfn,it's always after dark on sea of thieves @madfastkid69,2019-01-22 21:13:23
gtwombocombo88,blow up,2019-01-22 21:13:28
shuyaku_,water looks so good,2019-01-22 21:13:29
noahf25,he touched the butt,2019-01-22 21:13:30
elma05,@ninja us you sword like this for move faster,2019-01-22 21:13:31
christianj456,a blobfish @ninja,2019-01-22 21:13:31
twitchyw0lf,explosive barrels laughing my ass off,2019-01-22 21:13:35
c7_jonas,:P,2019-01-22 21:13:38
makayla_510,ahhh snap how long has he been playing chat?,2019-01-22 21:13:44
madfastkid69,@parkerfn why?,2019-01-22 21:13:44
parkerfn,i'm not sure,2019-01-22 21:13:51
natanelelik,@ninja what about after dark spicy swearing ninja?,2019-01-22 21:13:52
wikk3r,whats good @ninja :),2019-01-22 21:13:53
everythingisnotfine,haha,2019-01-22 21:13:55
wikk3r,and chat,2019-01-22 21:13:58
nanonano,mermaid to the rescue :),2019-01-22 21:13:58
scrublord_supreme,ship is moored shift colors,2019-01-22 21:14:00
jaynonymouse,lols way to comeback,2019-01-22 21:14:02
superhercyt,hahahahaha parking the boat...,2019-01-22 21:14:03
slaydimes,wat,2019-01-22 21:14:04
blaazerod,youre good youre good youre god,2019-01-22 21:14:05
random_d1plo,10/10,2019-01-22 21:14:06
makayla_510,how long has he been playing sot?,2019-01-22 21:14:07
mymindspray,:d,2019-01-22 21:14:11
superhercyt,i dont think it works that way,2019-01-22 21:14:14
kaidawrath,welcome to sot ninja and folks <3,2019-01-22 21:14:16
papablessyew,@makayla_510 hour or so,2019-01-22 21:14:17
nanonano,parking job,2019-01-22 21:14:18
burgleyourturts,"dont worry cap'n, we'll buff out those scratches",2019-01-22 21:14:18
njdevil,keeep goin your good,2019-01-22 21:14:19
mymindspray,ninja arrives to complete chaos,2019-01-22 21:14:22
princegiff,:d,2019-01-22 21:14:23
serennnna,he just started playing today for an hour or so,2019-01-22 21:14:24
shuyaku_,laughing my ass off,2019-01-22 21:14:26
flashey,@makayla_510 about an hour matey,2019-01-22 21:14:29
njdevil,leedle leedle leedle le,2019-01-22 21:14:33
makayla_510,damn has he liked it?,2019-01-22 21:14:42
luedawg,first gold!,2019-01-22 21:14:44
daddysodacan,yo chat why is all the fortnite players starting to play sea of thieves,2019-01-22 21:14:45
nanonano,this is fine :),2019-01-22 21:14:45
mlsto,:d,2019-01-22 21:14:46
gtwombocombo88,they need to play this game after dark,2019-01-22 21:14:53
makayla_510,i love watching this game :d,2019-01-22 21:15:00
zyphxo,yay now we got other people than summit keeping this game alive,2019-01-22 21:15:05
kaidawrath,welcome to sot ninja and co,2019-01-22 21:15:08
nanonano,level 2 :),2019-01-22 21:15:14
frostz3ro,oh my god i love this game,2019-01-22 21:15:14
buttplug5158,ninja.,2019-01-22 21:15:15
eightystings,after dark already?!,2019-01-22 21:15:19
greatmight656,"i forgot that theres proximity chat in this game, you what that means",2019-01-22 21:15:19
frostz3ro,i am a pirate legend,2019-01-22 21:15:21
natanelelik,oh no no,2019-01-22 21:15:24
nanonano,sinking,2019-01-22 21:15:25
tropictm,i absolutely love seeing ninja play sot,2019-01-22 21:15:30
johninsocal,thats what she said,2019-01-22 21:15:37
madfastkid69,ye ye which one of you lactating crap sissys f*cked my cousin,2019-01-22 21:15:39
9573505,",lol",2019-01-22 21:15:47
bar_c0de,get courage,2019-01-22 21:15:51
natanelelik,@tropictm what the fuck is sot,2019-01-22 21:15:52
madfastkid69,:d,2019-01-22 21:15:54
9573505,go go go,2019-01-22 21:15:56
roblow101,courage,2019-01-22 21:16:02
amdadul,courage,2019-01-22 21:16:07
williest01,jaaaay deeee,2019-01-22 21:16:11
frostz3ro,the grind is insane with this game,2019-01-22 21:16:16
njdevil,farm the rocks,2019-01-22 21:16:16
madfastkid69,ninja what u drinking,2019-01-22 21:16:16
shuyaku_,get the courageous in here,2019-01-22 21:16:21
bar_c0de,get doc,2019-01-22 21:16:24
arabflexing,inte jd,2019-01-22 21:16:25
thebakedowl,get jack,2019-01-22 21:16:26
9573505,ya i just wanted you what you can get it tomorrow and then you can get it tomorrow and then you can get it tomorrow and then you can get it tomorrow and then you can get it tomorrow and then you can get it tomorrow and then you can get it tomorrow and then you can get it tomorrow and then you can get it tomorrow and then you can get it tomorrow and then you can get it tomorrow and then you can get it tomorrow and then you can get it tomorrow and then you can get it tomorrow and then get it,2019-01-22 21:16:27
mannuck2469,ninja always block before sword dash. so you can jump while dashing to go further.,2019-01-22 21:16:27
fikoeos,get courage,2019-01-22 21:16:31
nanonano,get the brigantine,2019-01-22 21:16:33
kineticwolf911,hi,2019-01-22 21:16:46
the_k_train,scuffed tim raid :),2019-01-22 21:16:47
sirryxn,gachibass,2019-01-22 21:16:51
mlsto,oh hi liz,2019-01-22 21:16:51
nanonano,ready for battle,2019-01-22 21:16:53
daredevil_rl,double pump he,2019-01-22 21:16:54
twitzh,hihihihi,2019-01-22 21:16:56
kemli,:d,2019-01-22 21:16:58
kaidawrath,:d,2019-01-22 21:16:59
kumarwest,aaayyye sea of thieves,2019-01-22 21:17:00
buckle0this,purchase are cosmetic only,2019-01-22 21:17:07
camzrats,:d,2019-01-22 21:17:16
johninsocal,its summit,2019-01-22 21:17:19
probablymylastlogin,@daredevil_rl almost literally. theyre patching it soon,2019-01-22 21:17:19
mannuck2469,always hold right click while sword ing. so you can move faster before and jump before to further movement,2019-01-22 21:17:20
madfastkid69,are all russians born in track suits and a bottle of vodka in hand,2019-01-22 21:17:26
rdhixd,wth i never thought ninja would ever play sot!!!,2019-01-22 21:17:29
hyperfrinzy_yt,tell your ninja,2019-01-22 21:17:34
xdtheg,dont jump off the boat :d,2019-01-22 21:17:36
xthefigx,sneak on their boat,2019-01-22 21:17:36
kaidawrath,haaaaaaahahah,2019-01-22 21:17:37
wanderingtree12,its after dark in chyna bois go,2019-01-22 21:17:41
shadowblujay,:d,2019-01-22 21:17:43
everythingisnotfine,hahahaha,2019-01-22 21:17:44
ga007,:d,2019-01-22 21:17:45
xexclusive_j,:d,2019-01-22 21:17:45
kemli,"ninja the mermaid, swim away !",2019-01-22 21:17:45
slaydimes,omfg,2019-01-22 21:17:47
kineticwolf911,oof,2019-01-22 21:17:47
gtwombocombo88,thats why you dont ever yeet off the ship,2019-01-22 21:17:49
whobud,hahaha,2019-01-22 21:17:50
happyhagy,never leave the ship,2019-01-22 21:17:50
nuganomic,action is coming,2019-01-22 21:17:51
blasters_,:(,2019-01-22 21:17:52
whonderbread,why did u jump :(,2019-01-22 21:17:54
greatmight656,:d,2019-01-22 21:17:55
aorta73,dude stop jumping off the boat!,2019-01-22 21:17:55
figjam300,"some pirates have a wooden leg, lupo has a wooden hip :)",2019-01-22 21:17:55
pepperjak,what is happening. laughing my ass off @ninja,2019-01-22 21:17:55
kleiniken,abandon ship. ur a bot,2019-01-22 21:17:57
happyfat1981,you guys need summit,2019-01-22 21:18:02
mymindspray,:d,2019-01-22 21:18:03
shuyaku_,ninja bad teammate,2019-01-22 21:18:05
whobud,:),2019-01-22 21:18:08
blaazerod,this is why we need captain tim,2019-01-22 21:18:09
gtwombocombo88,thats a lotta damage!,2019-01-22 21:18:10
marcoahmxo,abandon shippp,2019-01-22 21:18:10
toaster0420,ninja abandon ship... smh,2019-01-22 21:18:10
lilpiggy812,leave lupo,2019-01-22 21:18:12
ralphanator04,get summit to play,2019-01-22 21:18:12
pepperjak,@ninja after dark already????? :d,2019-01-22 21:18:13
wanderingtree12,summit doesnt wanna teach anyone how to play :d,2019-01-22 21:18:19
warrior4god,instantly abandons ship,2019-01-22 21:18:20
sonofitaly88,what game is this ?,2019-01-22 21:18:22
dewflyer,where is marcel when you need him,2019-01-22 21:18:28
shadowblujay,:d,2019-01-22 21:18:32
xthefigx,what happened,2019-01-22 21:18:41
daredevil_rl,board their ship and blow it up :d,2019-01-22 21:18:44
okokemilyrose,what game is this,2019-01-22 21:18:45
flashey,yes,2019-01-22 21:18:51
culver4,sot,2019-01-22 21:18:57
nanonano,battle over,2019-01-22 21:18:58
xxxkolexaidxxx,garbage teammate,2019-01-22 21:19:00
kineticwolf911,hiiiiiiiiiiii,2019-01-22 21:19:00
destroyerstp,hahaha tried to shoot mermaid lool,2019-01-22 21:19:02
luedawg,gonna be a new ship,2019-01-22 21:19:02
christianj456,@okokemilyrose sea of thieves,2019-01-22 21:19:02
mannuck2469,ninja got his character stuck and teleported to the boat,2019-01-22 21:19:02
marcoahmxo,@okokemilyrose sea of thieves,2019-01-22 21:19:07
treyw803,sea of thieves,2019-01-22 21:19:08
raider_tommy,nooooo :d,2019-01-22 21:19:09
mizzako,you black screened because you got stuck,2019-01-22 21:19:10
buckle0this,take a mini,2019-01-22 21:19:10
xdtheg,new spawn island,2019-01-22 21:19:17
barbxlahey,sui bomb,2019-01-22 21:19:17
mlsto,:d where tf is ninja,2019-01-22 21:19:20
valkitrocity,reeeeeeeeeeeeee,2019-01-22 21:19:26
nanonano,new boat,2019-01-22 21:19:27
whobud,:(,2019-01-22 21:19:30
makayla_510,:d miles away,2019-01-22 21:19:33
kaidawrath,whenever you take the mermaid it leads you back to the ship.,2019-01-22 21:19:38
destroyerstp,you can sword charge off the boat to get to shore quickly,2019-01-22 21:19:39
kemli,"the boat sank, it respawned, he used the mermaid, so he got back to the new ship[",2019-01-22 21:19:41
bradigans,just get drunk by yourself,2019-01-22 21:19:44
shuyaku_,laughing my ass off what happened,2019-01-22 21:19:46
ga007,jus gather stuff for when they get back,2019-01-22 21:19:48
zarkblack13ytb,hellooii,2019-01-22 21:19:54
k4l4kkuna,go get the loot,2019-01-22 21:19:55
gotkuuip0,you are miles away now,2019-01-22 21:20:00
destroyerstp,sword charge off the boat!!!,2019-01-22 21:20:00
justjenn,get supplies for the ship,2019-01-22 21:20:03
rdhixd,wth was that he was drinking,2019-01-22 21:20:11
evanftb73,get a brig,2019-01-22 21:20:11
jynxya17,go get supplies,2019-01-22 21:20:14
shuyaku_,ninja dance,2019-01-22 21:20:14
alexthegreat4493,what is he drinking :d,2019-01-22 21:20:14
mitchellgoozan,might as well drink some grog while you wait,2019-01-22 21:20:17
kemli,"smart, might well stock up",2019-01-22 21:20:25
destroyerstp,you can sword charge off the boat to get to shore quickly,2019-01-22 21:20:30
gotkuuip0,you have to raise anchor after you angle ship,2019-01-22 21:20:45
rdhixd,is this game the new fortnite hmm,2019-01-22 21:21:11
barnickle_boy,is ninja always after dark now?,2019-01-22 21:21:12
sirryxn,clap,2019-01-22 21:21:16
adearx,you can in game texted . iv'e done it once,2019-01-22 21:21:20
kemli,hahaha,2019-01-22 21:21:25
kaidawrath,:d,2019-01-22 21:21:28
cowley3,"gangsters, whats up guys?",2019-01-22 21:21:29
flashey,"@barnickle_boy no, but always when hes playing sot",2019-01-22 21:21:34
nick_fulmore,play music for the snakes and theyll chill :d,2019-01-22 21:21:36
nanonano,snakes are cute :(,2019-01-22 21:21:38
niri9177,:d he spat,2019-01-22 21:21:43
kemli,sup @cowley3,2019-01-22 21:21:47
djvrock,yerrrrrr,2019-01-22 21:22:00
lm09302,what kind of game is this?,2019-01-22 21:22:04
hootang,yee haw,2019-01-22 21:22:08
kineticwolf911,ninja play music to the snake,2019-01-22 21:22:10
butternuts33,if u play music the snakes calm down,2019-01-22 21:22:11
barnickle_boy,@cowley3 whats that from? i hear the kids voice when you say it :d,2019-01-22 21:22:13
alexthegreat4493,what is he drinking :d,2019-01-22 21:22:15
shuyaku_,get skadoodle in here,2019-01-22 21:22:18
mooreduplicator,ninja is love watching him,2019-01-22 21:22:18
vulry,this gake trashhhh,2019-01-22 21:22:19
kleiniken,i think the word you are searching for is slave,2019-01-22 21:22:19
iimtaasty,arrrrgh,2019-01-22 21:22:21
dalordbabyjesus,fps counter,2019-01-22 21:22:23
cobaltsav,:d what is he drinking,2019-01-22 21:22:24
nanonano,@lm09302 pirate game,2019-01-22 21:22:35
barnickle_boy,thanks @flashey he drink while playing!? why only with sot,2019-01-22 21:22:38
thatguy2028,this is a good game unlike fortnite,2019-01-22 21:22:43
bedheadj1,hello mods and chatters,2019-01-22 21:22:46
maccam121,good afternoon tyler,2019-01-22 21:23:00
okokemilyrose,call me by your name and ill call you by mine,2019-01-22 21:23:03
flashey,"@barnickle_boy hes drinking now, and said he would when he plays",2019-01-22 21:23:07
graciee_babyy,hi,2019-01-22 21:23:11
bedheadj1,hello nightbot,2019-01-22 21:23:11
marcoahmxo,"nightbot be like: ""ninja is completely sober rn \ /""",2019-01-22 21:23:17
bajapanti_,@ninja have u seen the new :d cinematics?,2019-01-22 21:23:18
daredevil_rl,kill people,2019-01-22 21:23:23
huntertc5,should i get this game?,2019-01-22 21:23:23
flo_432,@thatguy2028 why is fortnite a bad game?,2019-01-22 21:23:23
steezyjedi562,who is he playing with?,2019-01-22 21:23:26
quick_ng,switch servers,2019-01-22 21:23:28
rdhixd,love how ninja has got used to saying shit now on stream,2019-01-22 21:23:33
probablymylastlogin,more ship - cough,2019-01-22 21:23:40
johnnymack96,@steezyjedi562 sypher and lupo,2019-01-22 21:23:43
