Nick,Message,Timestamp
shmassyt,good shit brother,2019-01-22 21:23:45
nanonano,skull fort,2019-01-22 21:23:46
bajapanti_,"@steezyjedi562 timthetad, drlupo, and sypherpk",2019-01-22 21:23:50
zyphxo,i love after dark ninja,2019-01-22 21:23:56
zyphxo,more freedom,2019-01-22 21:24:01
cpac23,gotta go to class. cant wait to watch tonight if youre on pops,2019-01-22 21:24:02
steezyjedi562,@bajapanti_ thanks,2019-01-22 21:24:04
itzj0ey,ninja what happened to family friendly?,2019-01-22 21:24:07
proxxies,@ninja aye they finally fixed the cam!,2019-01-22 21:24:10
erattictv,:(,2019-01-22 21:24:10
oneuptwice,nate hill on sot,2019-01-22 21:24:17
gotkuuip0,find a pirate legend to join your ship and get an athenas quest,2019-01-22 21:24:18
barnickle_boy,i wonder if ninja has smoked before,2019-01-22 21:24:18
zach7227,play with the 2x,2019-01-22 21:24:23
kemli,:d,2019-01-22 21:24:23
kemli,cmonnnn,2019-01-22 21:24:27
the_k_train,hes playing fortnite with myth. dont think hell be changing,2019-01-22 21:24:27
arianadunlop69,he's playing fort with myth,2019-01-22 21:24:27
janissaryoa8,blacksea,2019-01-22 21:24:29
chadbrobertson,:d,2019-01-22 21:24:29
d_dawg6,wiener raiders,2019-01-22 21:24:29
landonh22,pull your light out,2019-01-22 21:24:29
gingersnapcwby,:d,2019-01-22 21:24:29
kemli,:d,2019-01-22 21:24:30
tsdkiller,laughing my ass off,2019-01-22 21:24:30
flashey,:d,2019-01-22 21:24:39
superhercyt,oh my......,2019-01-22 21:24:43
jackell49,summits nearby,2019-01-22 21:24:47
lm09302,haha,2019-01-22 21:24:47
wikk3r,christ :d,2019-01-22 21:24:50
hunterhayvi,bruhhhh,2019-01-22 21:24:52
decodedwarrior,hahaha,2019-01-22 21:24:54
zach7227,play with the doc,2019-01-22 21:24:55
shuyaku_,summit,2019-01-22 21:24:57
ralphanator04,weiner raiders,2019-01-22 21:24:58
probablymylastlogin,nate hill is playing too,2019-01-22 21:24:59
kemli,it's just circles guys :d,2019-01-22 21:25:01
nanonano,8oooo,2019-01-22 21:25:02
shuyaku_,hes on his way,2019-01-22 21:25:02
greatmight656,the weiner raiders!!!,2019-01-22 21:25:03
texa,summit1g has joined the chat,2019-01-22 21:25:03
zach7227,dr. disrespect,2019-01-22 21:25:05
arianadunlop69,pj is on,2019-01-22 21:25:08
texa,:),2019-01-22 21:25:09
bajapanti_,sumsmash weiner raiders,2019-01-22 21:25:17
jcostas76,summit,2019-01-22 21:25:17
bajapanti_,monkatos icecold chat get me out,2019-01-22 21:25:31
itzj0ey,what happened to family friendly @ninja,2019-01-22 21:25:35
probablymylastlogin,trevor is probably with his bud gubba,2019-01-22 21:25:37
jishiphishi95,its so dark,2019-01-22 21:25:41
proxxies,unlimited ammo?,2019-01-22 21:25:44
papablessyew,@itzj0ey ninja after dark,2019-01-22 21:25:44
serennnna,we're in after dark now,2019-01-22 21:25:51
tessagrimm,this is a after dark stream?,2019-01-22 21:25:52
daredevil_rl,sxsw,2019-01-22 21:25:52
bajapanti_,sumsmash weiner raiders sumsmash weiner raiders sumsmash weiner raiders,2019-01-22 21:25:53
wanderingtree12,i will be so disappointed if you dont play with with ceez. found twitch through the organic bonding experiences @ninja,2019-01-22 21:25:59
marcoahmxo,@tessagrimm yes,2019-01-22 21:26:01
kemli,"@itzj0ey still around, this is after dark mode, due to the game",2019-01-22 21:26:02
probablymylastlogin,weast,2019-01-22 21:26:04
alexthegreat4493,@ninja go up in the crows nest,2019-01-22 21:26:04
nanonano,arrrr,2019-01-22 21:26:04
kmart301,see if courage wants to play?,2019-01-22 21:26:05
averagemoe69,after dark we lit bitches,2019-01-22 21:26:05
daalohadude_,yuur,2019-01-22 21:26:08
itzj0ey,its 12pm for me,2019-01-22 21:26:14
papablessyew,attention chat. look at the camera. see how it after dark? well there ya go,2019-01-22 21:26:26
kineticwolf911,summit should sneak on his ship,2019-01-22 21:26:27
proxxies,kids come home from school and see after dark :d,2019-01-22 21:26:27
jcostas76,@ninja you have a lantern,2019-01-22 21:26:34
cigam1,theres proximity chat he cant control,2019-01-22 21:26:34
smather14,"east? i thought you said ""weast"". that's west patrick",2019-01-22 21:26:38
texa,llool on the summit bandwagon,2019-01-22 21:26:39
chadbrobertson,on the summit bandwagon,2019-01-22 21:26:40
frostywhite,on the summit bandwagon is his title,2019-01-22 21:26:41
andremustdie,on the summit bandwagon :d,2019-01-22 21:26:43
iammarcus,on the summit bandwagon,2019-01-22 21:26:44
ryanlr88,"""on the summit bandwagon lol""",2019-01-22 21:26:44
mishilo,on the summit bandwagon :d,2019-01-22 21:26:45
scrublord_supreme,on the submit bandwagon :d,2019-01-22 21:26:47
pjg321991,:d,2019-01-22 21:26:48
sthompson44,"""on the summit bandwagon lul""",2019-01-22 21:26:48
averagemoe69,what the fuck did you say to me you little shit,2019-01-22 21:26:52
krispykarl,"cheer700 fuck the haters man, do what you want and your loyal supporters will follow. keep it up brother",2019-01-22 21:26:54
happyfat1981,on the summit bandwagon,2019-01-22 21:26:54
sirryxn,gachibass,2019-01-22 21:26:57
daredevil_rl,summit of thieves,2019-01-22 21:26:58
wanderingtree12,it should be clout farming summits game,2019-01-22 21:26:59
relentlessbandit,accurate.,2019-01-22 21:26:59
greatmight656,on the submit bandwagon :d,2019-01-22 21:27:01
mynameisjuner,on the summit bandwagon,2019-01-22 21:27:03
kemli,weiners everywhere arrrr,2019-01-22 21:27:05
manduttan,hahahaha,2019-01-22 21:27:06
adearx,@ninja bruh i have a day 1 patch!! i was playing before summit !!,2019-01-22 21:27:11
urgurlcallmedaddy,quality content ninja!,2019-01-22 21:27:12
ikonicttv,lolll,2019-01-22 21:27:13
manduttan,cryin,2019-01-22 21:27:13
kumarwest,:d,2019-01-22 21:27:14
sirryxn,yep there's the shaft,2019-01-22 21:27:16
flashey,"@itzj0ey ""after dark"" is a term for when hes gonna curse or ppl playin with. not legit at night",2019-01-22 21:27:16
pjg321991,gachibass,2019-01-22 21:27:17
yooitsmikee,wiener raiders,2019-01-22 21:27:17
cgonz,what the fuck you said i mean at the same time thats weird laughing my ass off,2019-01-22 21:27:23
kumarwest,its a signal,2019-01-22 21:27:24
thetankcr3,:d,2019-01-22 21:27:25
kemli,syph saw it,2019-01-22 21:27:26
kemli,:d,2019-01-22 21:27:27
greatmight656,no ninja thats a chode mindmanners,2019-01-22 21:27:29
so_icey1017,:(,2019-01-22 21:27:30
i_mystical_i,"""yesss, yes oh my god @lazarus welcome that means so much, let me put you on the chalkboard"" :d",2019-01-22 21:27:31
toxiic_haze,i have this game and love it but never play it because im trash,2019-01-22 21:27:32
averagemoe69,peener,2019-01-22 21:27:33
happyfat1981,look at drdisrespects camera,2019-01-22 21:27:37
figjam300,shafted,2019-01-22 21:27:41
justzack,git good ninja cant be summit,2019-01-22 21:27:44
greenfields12,get ammo,2019-01-22 21:27:46
thatguy2028,i started playing this game on friday and now ninja is playing it???,2019-01-22 21:27:48
dat_maggic_juice,ghost ship in the clouds?,2019-01-22 21:27:49
chris15620,its,2019-01-22 21:27:52
thekool1987,what this game,2019-01-22 21:28:08
kmart301,ya right now,2019-01-22 21:28:11
noahf25,i wonder what patrick star would say right now? @ninja,2019-01-22 21:28:19
yagason,invite the dr,2019-01-22 21:28:26
texa,laughing my ass off,2019-01-22 21:28:32
proxxies,lmaooooooooo,2019-01-22 21:28:32
kemli,:d,2019-01-22 21:28:35
papablessyew,@noahf25 youre good.. youre good.. youre good,2019-01-22 21:28:37
flashey,:d,2019-01-22 21:28:41
sirryxn,omegalul,2019-01-22 21:28:43
chadbrobertson,:d,2019-01-22 21:28:44
averagemoe69,:d,2019-01-22 21:28:48
greatmight656,:d,2019-01-22 21:28:50
kumarwest,:d,2019-01-22 21:28:54
quick_ng,sponge bob reference pog,2019-01-22 21:28:58
sirryxn,"keep going, you're good",2019-01-22 21:28:59
zachw05,is this pc only??,2019-01-22 21:28:59
warrior4god,real talk pirate ship cloud,2019-01-22 21:29:02
pmlucas18,but ok,2019-01-22 21:29:02
the_k_train,:d,2019-01-22 21:29:04
noahf25,@papablessyew i was looking for a leedle leedle leedle lee,2019-01-22 21:29:04
temptedsky,leedle leedle leedle,2019-01-22 21:29:05
zaby42,@zachw05 xbox,2019-01-22 21:29:08
jcostas76,xbox,2019-01-22 21:29:09
kineticwolf911,crash the boat,2019-01-22 21:29:10
footedpanda,yee dah yee dah ling,2019-01-22 21:29:11
gand2479,when you havent seen spongebob smile,2019-01-22 21:29:14
lazerflames,hello,2019-01-22 21:29:17
papablessyew,@noahf25 :d leedleeleleee,2019-01-22 21:29:20
andrewbernstein,how much this coast,2019-01-22 21:29:25
the_k_train,"peculiar boast, but alas",2019-01-22 21:29:26
fuxkwinter,will leney is top shager,2019-01-22 21:29:26
marcoahmxo,leedleleedleleedle,2019-01-22 21:29:27
cyberblaziken,i miss 2 days because of traveling and the gang is playing sot wadu heck,2019-01-22 21:29:34
greatmight656,ledel ledel ledel,2019-01-22 21:29:34
averagemoe69,but ok,2019-01-22 21:29:35
quick_ng,@zachw05 pc and xbox1,2019-01-22 21:29:38
noahf25,ahewwwww nananannana leedle leedle leedle lee,2019-01-22 21:29:38
toxicc_surgeon,is there zombies in team rumble?,2019-01-22 21:29:41
zachw05,oh lit thanks,2019-01-22 21:29:53
cr3amwh3at,plunder its booty arrrgggghhh,2019-01-22 21:29:54
sirryxn,gachibass,2019-01-22 21:29:55
andrewbernstein,how much this game cost?,2019-01-22 21:29:56
bajapanti_,drop it,2019-01-22 21:30:01
jcostas76,@toxicc_surgeon no,2019-01-22 21:30:01
sirryxn,everything in this stream is gachi worthy omegalul,2019-01-22 21:30:01
footedpanda,leedle leedle lee,2019-01-22 21:30:02
averagemoe69,$69,2019-01-22 21:30:06
bajapanti_,sumsmash drop it,2019-01-22 21:30:08
canigotobednow,hello,2019-01-22 21:30:11
kemli,drop the anchor,2019-01-22 21:30:11
kineticwolf911,crash it,2019-01-22 21:30:11
awesomedude20051,how much this game cost anyone?,2019-01-22 21:30:12
nanonano,arr arr arr,2019-01-22 21:30:12
bajapanti_,crinjapride,2019-01-22 21:30:16
kissmykuester,"not a fan of this game, but i love watching ninja so it doesn't matter",2019-01-22 21:30:20
dub_dubb,this game goes on sale a lot.. but its 60 dollars or you can get the game with the xbox game pass,2019-01-22 21:30:24
marcoahmxo,take a shit on the deck,2019-01-22 21:30:26
eldoradoman64,climb in the cannon and shoot yourself to the island!!!,2019-01-22 21:30:27
averagemoe69,woah,2019-01-22 21:30:28
whonderbread,crinjapride,2019-01-22 21:30:29
tnick502,what is he drinking,2019-01-22 21:30:35
nanonano,@awesomedude20051 $60 or play sot 2 week free / $1 for 1st month with gamepass :),2019-01-22 21:30:36
kemli,:d,2019-01-22 21:30:37
niri9177,aim,2019-01-22 21:31:50
texa,na aim :d,2019-01-22 21:35:23
clumpysteamer,game is $60. but you can get it on game pass,2019-01-22 21:35:23
kemli,george of the jungle moment,2019-01-22 21:35:23
deliminionarmy,arrr me matey,2019-01-22 21:35:23
thatguy2028,the game cost is probably going to go up because ninja is plaing,2019-01-22 21:35:23
bajapanti_,f,2019-01-22 21:35:23
quick_ng,lupo is the only one who has actually watched summits stream haha,2019-01-22 21:35:23
bajapanti_,@quick_ng bet,2019-01-22 21:35:23
texa,what the fuck,2019-01-22 21:35:23
averagemoe69,fail :),2019-01-22 21:35:23
kemli,holy,2019-01-22 21:35:23
alexthegreat4493,where did tim go?,2019-01-22 21:35:23
texa,just finding skulls,2019-01-22 21:35:23
kemli,dude,2019-01-22 21:35:23
buckle0this,epic is panic meeting right now about this stream. :d,2019-01-22 21:35:23
xdtheg,thats a nice one,2019-01-22 21:35:23
mishilo,bro thats worth so much :d,2019-01-22 21:35:23
texa,thats a good one too,2019-01-22 21:35:23
flashey,what,2019-01-22 21:35:23
texa,wtf??,2019-01-22 21:35:23
kineticwolf911,:d,2019-01-22 21:35:23
chadbrobertson,streamer perk,2019-01-22 21:35:23
wheels03,streamer loot :d,2019-01-22 21:35:23
d_dawg6,thats the skull,2019-01-22 21:35:23
noahf25,tyler we need a good leedle leedle leedle lee,2019-01-22 21:35:23
kemli,he's just finding the good stuff,2019-01-22 21:35:23
texa,streamer loot,2019-01-22 21:35:23
bloodshot91,:d,2019-01-22 21:35:23
orangeaspell,i am greatly enjoying you playing sea of thieves,2019-01-22 21:35:23
whonderbread,:d hes a god,2019-01-22 21:35:23
pjg321991,:d,2019-01-22 21:35:23
masonhunter126,laughing my ass off,2019-01-22 21:35:23
barbxlahey,:d,2019-01-22 21:35:23
jcostas76,got the game at christmas for the xbox and been playing it almost every night. love this game,2019-01-22 21:35:23
nanonano,random treasure finder,2019-01-22 21:35:23
runde_actual,streamer loot,2019-01-22 21:35:23
jackmc38,streamer looooot,2019-01-22 21:35:23
kurokyoki,villianous bounty skull,2019-01-22 21:35:23
the_k_train,how the hell he do this,2019-01-22 21:35:23
rdhixd,this brings out a good part of ninja,2019-01-22 21:35:23
figjam300,:d hes a god,2019-01-22 21:35:23
spectris_,nope def not the skull,2019-01-22 21:35:23
colateralmovements,nice,2019-01-22 21:35:23
johnnymack96,streamer loot dog,2019-01-22 21:35:23
quick_ng,second pog,2019-01-22 21:35:23
mishilo,ashen villanous is the,2019-01-22 21:35:23
theunforgiver,the latest battlepass looks different,2019-01-22 21:35:23
bajapanti_,:( hes drunk again,2019-01-22 21:35:23
masonhunter126,"scallywag took it a little to far, at most",2019-01-22 21:35:23
blackfyre__,good lawd you a real pirate ninja!,2019-01-22 21:35:23
kemli,not the but dam pretty damn good,2019-01-22 21:35:23
maddkiwi,i want ceez and ninja,2019-01-22 21:35:23
frostywhite,"@thatguy2028 you get it from xbox game pass or pay 60 for it, so the price cant really fluctuate",2019-01-22 21:35:23
johnnymack96,:d,2019-01-22 21:35:23
kumarwest,:d,2019-01-22 21:35:23
so_icey1017,last,2019-01-22 21:35:23
frostz3ro,skull fort,2019-01-22 21:35:23
spectris_,fortress skull,2019-01-22 21:35:23
wheels03,oddball :d,2019-01-22 21:35:23
raddison_,streamer booty by the way,2019-01-22 21:35:23
frostz3ro,skull,2019-01-22 21:35:23
genoc1dal,skull for the area you're in,2019-01-22 21:35:23
proxxies,is an instrument?,2019-01-22 21:35:23
frostz3ro,2000 gold,2019-01-22 21:35:23
dontchano,"he wasnt meant for battle royales, he was meant to be a pirate",2019-01-22 21:35:23
averagemoe69,scurvy little plebs feelsbad,2019-01-22 21:35:23
islandchach,streamer booty :d,2019-01-22 21:35:23
adearx,@genoc1dal :d,2019-01-22 21:35:23
shepeachy,sea of thieves is not $60,2019-01-22 21:35:23
daalohadude_,yeeeeet,2019-01-22 21:35:23
nanonano,great skull,2019-01-22 21:35:23
so_icey1017,nice booty :),2019-01-22 21:35:23
texa,keep going puc,2019-01-22 21:35:23
kineticwolf911,:|,2019-01-22 21:35:23
epicdose,is this game cross platform ca,2019-01-22 21:35:23
spectris_,:d thinking 2 chests and a skull is good loot im dead,2019-01-22 21:35:23
mishilo,chat i found a chest of wondrous secrets last night :|,2019-01-22 21:35:23
alexthegreat4493,leedle leedle leedle lee,2019-01-22 21:35:23
mishilo,25k baby,2019-01-22 21:35:23
texa,:),2019-01-22 21:35:23
shuyaku_,leeeeeedle,2019-01-22 21:35:23
genoc1dal,"@adearx lol, wait for the dr area",2019-01-22 21:35:23
shuyaku_,:),2019-01-22 21:35:23
noahf25,leedle lee,2019-01-22 21:35:23
adearx,has ninja even done pvp yet?,2019-01-22 21:35:23
frostywhite,@shepeachy how much is it then i was gonna buy it but when i looked on the xbox store i thought it was 60,2019-01-22 21:35:23
quick_ng,@epicdose pc and xbox compatible,2019-01-22 21:35:23
caboose413,wth,2019-01-22 21:35:23
the_k_train,:),2019-01-22 21:35:23
chris15620,try and move the cannon practice,2019-01-22 21:35:23
millyydc,season 7 update looks different,2019-01-22 21:35:23
champi0n,:d,2019-01-22 21:35:23
frostz3ro,ship is to slow for what your using it for you want the three man ship,2019-01-22 21:35:23
proxxies,:),2019-01-22 21:35:23
nanonano,:(,2019-01-22 21:35:23
flashey,arrghh matey that be a good find :) @mishilo,2019-01-22 21:35:23
thetankcr3,if i played this game i already i would sink the ship for fun,2019-01-22 21:35:23
leulucious,anyone wanna creative 1v1,2019-01-22 21:35:23
thetankcr3,:d,2019-01-22 21:35:23
imjustgnarly,put the skull on the shelf,2019-01-22 21:35:23
averagemoe69,leedle leedle leedle,2019-01-22 21:35:23
fcppearl,hi,2019-01-22 21:35:23
wburrier,:d,2019-01-22 21:35:23
thetankcr3,:),2019-01-22 21:35:23
noahf25,ahhewwwww nananannanana leedle leedle leedle lee,2019-01-22 21:35:23
mishilo,@flashey arrrghh ill take yee out for some grog,2019-01-22 21:35:23
xdtheg,"raise the sails and put up the anchor, your ship wont move till you lower the sails",2019-01-22 21:35:23
thetankcr3,off,2019-01-22 21:35:23
colateralmovements,this is neato mosquito,2019-01-22 21:35:23
kineticwolf911,:-^3^,2019-01-22 21:35:23
nanonano,10pm,2019-01-22 21:35:23
johnnymack96,i wanna play sot but i only have ps4 feelsbadman,2019-01-22 21:35:23
proxxies,pog,2019-01-22 21:35:23
thetankcr3,littttt,2019-01-22 21:35:23
pjg321991,:(,2019-01-22 21:35:23
gearbox42,language,2019-01-22 21:35:23
texa,:(,2019-01-22 21:35:23
proxxies,poggggg,2019-01-22 21:35:23
barbxlahey,:(,2019-01-22 21:35:23
ghostflashjgt,:(,2019-01-22 21:35:23
sirryxn,here he comes,2019-01-22 21:35:23
kineticwolf911,^3^,2019-01-22 21:35:23
aknudsen005,:(,2019-01-22 21:35:23
imjustgnarly,i love it,2019-01-22 21:35:23
xhabibi_,of,2019-01-22 21:35:23
cr3amwh3at,are they calling the karaken?,2019-01-22 21:35:23
champi0n,ninja just did an oopsie :d,2019-01-22 21:35:23
mishilo,hahaha,2019-01-22 21:35:23
kattycool1999,loving this,2019-01-22 21:35:23
johnnymack96,:(,2019-01-22 21:35:23
thetankcr3,:d,2019-01-22 21:35:23
relentlessbandit,we got chugs,2019-01-22 21:35:23
xhabibi_,:),2019-01-22 21:35:23
bigjtheonly,hello,2019-01-22 21:35:23
figjam300,get em,2019-01-22 21:35:23
erattictv,can anyone tell me what this game is sorry .,2019-01-22 21:35:23
averagemoe69,this is,2019-01-22 21:35:23
pacomedagreat,:d ninja always looking for a reason to drink,2019-01-22 21:35:23
xdtheg,go get more then turn in,2019-01-22 21:35:23
footedpanda,listen here you little,2019-01-22 21:35:23
cathia92,goodnight @ninja and chat,2019-01-22 21:35:23
xmacman,after dark early. living the pirate life,2019-01-22 21:35:23
quick_ng,(after noon) mode,2019-01-22 21:35:23
gearbox42,sea of thieves,2019-01-22 21:35:24
thetankcr3,i think mom heard that :/,2019-01-22 21:35:24
adearx,@johnnymack96 welp xbox has no games so xbox doesnt have this game either,2019-01-22 21:35:24
masterxpimp,ninja the hahaha,2019-01-22 21:35:24
chadbrobertson,@champi0n that five year badge is lit,2019-01-22 21:35:24
faded_fella420,@champi0n it is after dark,2019-01-22 21:35:24
thetankcr3,never mind we good,2019-01-22 21:35:24
vpipes,oh,2019-01-22 21:35:24
johnnymack96,tf you say to me you little,2019-01-22 21:35:24
pizzaplayz946,family friendly yep,2019-01-22 21:35:24
twitch_mescal,hi,2019-01-22 21:35:24
kn2ghts,lfg swearing ninja is back,2019-01-22 21:35:24
champi0n,@chadbrobertson,2019-01-22 21:35:24
flashey,arrghh there no be a time to not drink when sailing the 7 matey,2019-01-22 21:35:24
thetankcr3,oh,2019-01-22 21:35:24
adearx,:),2019-01-22 21:35:24
marcoahmxo,fuck man,2019-01-22 21:35:24
texa,:),2019-01-22 21:35:24
ttvstormz,hello,2019-01-22 21:35:24
khaoticphantom,after dark people. that means anything is possible from ninja,2019-01-22 21:35:24
proxxies,7 hours until i can renew my sub,2019-01-22 21:35:28
nanonano,more loot :),2019-01-22 21:35:37
kineticwolf911,a beer,2019-01-22 21:35:39
bigjtheonly,im coming to sink your ship,2019-01-22 21:35:42
proxxies,east? i thought you said weast,2019-01-22 21:35:52
noahf25,^,2019-01-22 21:35:58
rdhixd,this game makes me want to buy a pc,2019-01-22 21:36:03
relentlessbandit,^,2019-01-22 21:36:03
probablymylastlogin,@proxxies m as in mancyy,2019-01-22 21:36:05
so_icey1017,:d,2019-01-22 21:36:07
whonderbread,this is so fun to watch,2019-01-22 21:36:07
pikespeed,no fortnite?,2019-01-22 21:36:10
shepeachy,@rdhixd its on xbox too.,2019-01-22 21:36:15
benthespartan10,fuck,2019-01-22 21:36:16
xdoug225,this is so,2019-01-22 21:36:17
faded_fella420,@pikespeed he played earlier,2019-01-22 21:36:21
heyitsluke17,*potc song plays*,2019-01-22 21:36:21
mcbeans5,its on xbox also,2019-01-22 21:36:24
mannuck2469,i really want all to go to devils roar just to get stomped. this would be a great group to watch freak necxt to the volcanos,2019-01-22 21:36:25
marcoahmxo,@pikespeed he already did,2019-01-22 21:36:28
mgmack1086,@ninja. arg!!!! why is all the rum gone?,2019-01-22 21:36:32
fssk_chimpy,whos he playing with?,2019-01-22 21:36:32
ryanlr88,this game is on consel,2019-01-22 21:36:35
flashey,@xdoug225 arrghh walk the plank then matey :),2019-01-22 21:36:35
adearx,@mannuck2469 :d,2019-01-22 21:36:39
pikespeed,ok,2019-01-22 21:36:42
weeshimoi_boi,fortllama fortllama fortllama fortllama fortllama fortllama fortllama fortllama fortllama fortllama fortllama fortllama fortllama fortllama fortllama fortllama fortllama fortllama fortllama fortllama fortllama fortllama fortllama fortllama fortllama fortllama fortllama fortllama fortllama fortllama fortllama fortllama fortllama fortllama fortllama,2019-01-22 21:36:45
xdoug225,hahaa,2019-01-22 21:36:46
jmcgov14,yaaarrrrrgh maties,2019-01-22 21:36:48
cr3amwh3at,send him to davy jones locker,2019-01-22 21:36:50
jblock6not9,tyler are you drinking kraken rum?,2019-01-22 21:36:50
sirryxn,omegalul,2019-01-22 21:36:52
marcoahmxo,@fssk_chimpy lupo and sypher,2019-01-22 21:36:52
temptedsky,bruh did no one else see that cloud?,2019-01-22 21:36:53
the_k_train,oh god its summit kapp,2019-01-22 21:36:53
pikespeed,this game any good?,2019-01-22 21:36:55
smather14,davy jones locker,2019-01-22 21:36:55
kemli,davey jones' locker arrrrr,2019-01-22 21:36:55
clawsonc,ninja remind anyone else how crazy lt. dan was on forrest shrimp boat?,2019-01-22 21:36:55
kattycool1999,:d,2019-01-22 21:36:58
nanonano,not a threat?,2019-01-22 21:37:00
texa,he's playing with sypher and lupo,2019-01-22 21:37:01
clawson423,:d,2019-01-22 21:37:02
hintofbiscuit9,swimming with the fishes,2019-01-22 21:37:03
figjam300,unactive,2019-01-22 21:37:05
kumarwest,my god :d,2019-01-22 21:37:06
frostywhite,7 :(,2019-01-22 21:37:09
rdhixd,@shepeachy but if i get a pc i can do so much more with it + im a loyal p4 player haha,2019-01-22 21:37:12
sirryxn,need one more gachibass,2019-01-22 21:37:13
skarton21gr,fortllama,2019-01-22 21:37:19
nanonano,8oooo,2019-01-22 21:37:20
kemli,:d the poor map,2019-01-22 21:37:21
relentlessbandit,ye old captain 7-dicks,2019-01-22 21:37:24
trevtec,:d,2019-01-22 21:37:34
sirryxn,hahahhaha,2019-01-22 21:37:35
weeshimoi_boi,anyone have better aim than shroud @ninja,2019-01-22 21:37:37
shepeachy,@rdhixd true. im new to pc just got one in december lol.,2019-01-22 21:37:38
adearx,ninja is doing it all wrong ninjafail. do it to the enemy !,2019-01-22 21:37:40
jrock9589,lmaoooo,2019-01-22 21:37:47
kleiniken,grooooosssss,2019-01-22 21:37:48
motomen550,poser of summit g,2019-01-22 21:37:49
mangophone,i feel like you can only drink the kraken while playing this.,2019-01-22 21:37:51
adearx,not your own,2019-01-22 21:37:52
pizzaplayz946,davy jones locker me hartee,2019-01-22 21:37:53
chadbrobertson,trying to get the mushroom tip eh,2019-01-22 21:37:54
nanonano,master navigator,2019-01-22 21:38:03
rdhixd,@shepeachy its just so much money. might spend my next student loan on it,2019-01-22 21:38:03
adearx,:(,2019-01-22 21:38:04
figjam300,hes like the kid form superbad that cant stop drawing them. veiny triumphant bastards :d,2019-01-22 21:38:08
figjam300,from*,2019-01-22 21:38:13
itsantonman92,i cant wait for this to come one xbox one,2019-01-22 21:38:14
thetankcr3,what are you doinn,2019-01-22 21:38:15
barbxlahey,take em on,2019-01-22 21:38:18
shepeachy,@rdhixd oooh boy good luck haha.,2019-01-22 21:38:20
whobud,questionable art skills,2019-01-22 21:38:20
nanonano,battle stations,2019-01-22 21:38:21
weeshimoi_boi,:p,2019-01-22 21:38:24
chazfazttv,gwarn,2019-01-22 21:38:36
mannuck2469,go to the devils roar for some death clips,2019-01-22 21:38:36
noahf25,now that were men we wear underwear,2019-01-22 21:38:40
webb034,ben just saved half mats lmoa,2019-01-22 21:38:41
rdhixd,@shepeachy thanks hahaha,2019-01-22 21:38:50
unkn0wn_soju19,idk if summit is gonna be thrilled about you copying his weiner raidr content,2019-01-22 21:38:50
faded_fella420,now that were men!,2019-01-22 21:38:53
b_ez_b,this insane everyone is on this games,2019-01-22 21:38:55
rdhixd,panic hahaha,2019-01-22 21:39:04
gand2479,:),2019-01-22 21:39:04
quick_ng,stream snipers same guys,2019-01-22 21:39:05
secseabeast,the black pearl,2019-01-22 21:39:07
strumshot,"summit was the first male human ever to draw a dick, we all that",2019-01-22 21:39:15
barbxlahey,@noahf25 changed* but :d,2019-01-22 21:39:15
kleiniken,wreck them. with cannons,2019-01-22 21:39:17
b_ez_b,crazy to think it was voted worse games of 2019,2019-01-22 21:39:19
noahf25,now that were men! we have facial,2019-01-22 21:39:23
faded_fella420,argh gimme the booty,2019-01-22 21:39:28
flashey,ayyye that may be the black pearl matey,2019-01-22 21:39:30
itsjeremy11,a,2019-01-22 21:39:34
jcostas76,need a small boat,2019-01-22 21:39:34
jmcgov14,"now tht wer emen, i changed my underwear",2019-01-22 21:39:37
nanonano,war,2019-01-22 21:39:37
adearx,here we go these noobs about to get clapped :d,2019-01-22 21:39:42
kemli,oh god,2019-01-22 21:39:47
sirryxn,:d,2019-01-22 21:39:50
barbxlahey,:d,2019-01-22 21:39:52
manduttan,hahahha,2019-01-22 21:39:56
faded_fella420,release the kraken.,2019-01-22 21:39:58
flashey,:d,2019-01-22 21:39:58
texa,laughing my ass off,2019-01-22 21:40:00
nanonano,1st shot,2019-01-22 21:40:05
noahf25,@barbxlahey it is changed noooo,2019-01-22 21:40:08
kumarwest,fire !!!,2019-01-22 21:40:10
chazfazttv,aga,2019-01-22 21:40:10
the_k_train,laughing my ass off,2019-01-22 21:40:11
kn2ghts,lmaooo,2019-01-22 21:40:13
texa,summits in the pit,2019-01-22 21:40:13
unkn0wn_soju19,no but he was the first to popularize this game with wieners,2019-01-22 21:40:16
manduttan,hahahahha,2019-01-22 21:40:16
ikonicttv,hahahaj!!!!,2019-01-22 21:40:18
greatmight656,"war, war never changes",2019-01-22 21:40:22
mymindspray,:d,2019-01-22 21:40:26
barbxlahey,@noahf25 *knee slaps* ninjarare,2019-01-22 21:40:26
flashey,laughing my ass off,2019-01-22 21:40:30
wheels03,this is awesome!,2019-01-22 21:40:32
jmcgov14,summits in the pit,2019-01-22 21:40:40
daredevil_rl,board their ship,2019-01-22 21:40:44
spappygram,gotta hit lower on the ship,2019-01-22 21:40:46
nanonano,fire,2019-01-22 21:40:48
aztecangoddess,wait,2019-01-22 21:40:49
makayla_510,:d,2019-01-22 21:40:49
niri9177,repair,2019-01-22 21:40:54
sirryxn,1g their ship sumsmash,2019-01-22 21:41:03
boziboy,ninja actually a boss with the cannons,2019-01-22 21:41:07
nanonano,eat lead,2019-01-22 21:41:07
aztecangoddess,did i hear ceez?,2019-01-22 21:41:08
cr3amwh3at,hit below the water line,2019-01-22 21:41:10
jcostas76,fix your boat,2019-01-22 21:41:15
jmcgov14,repair,2019-01-22 21:41:17
nanonano,no mercy,2019-01-22 21:41:19
boziboy,they're going down below,2019-01-22 21:41:22
faded_fella420,@boziboy thats what im saying :d,2019-01-22 21:41:23
reverendtom,aim for the bottom of the ship or else you are not doing anything,2019-01-22 21:41:26
motomen550,jump on there boat!!!,2019-01-22 21:41:27
jcostas76,aim low,2019-01-22 21:41:27
sirryxn,pepehands,2019-01-22 21:41:32
crmeezy,oh shit!!!,2019-01-22 21:41:33
reverendtom,has to be below water level,2019-01-22 21:41:33
frostz3ro,hahhhahahahhaa,2019-01-22 21:41:34
bajapanti_,stream snipers omegalul,2019-01-22 21:41:36
th3r3dd3vils12,f,2019-01-22 21:41:38
boziboy,@faded_fella420 for realz!,2019-01-22 21:41:41
redmsb,hit u red the water line,2019-01-22 21:41:41
sirryxn,gotta love when there's proof kapp,2019-01-22 21:41:42
barbxlahey,arghhhh die omegalul,2019-01-22 21:41:48
kineticwolf911,ooooooof,2019-01-22 21:41:51
trippyxbreezy,i told yall the pat's would win,2019-01-22 21:41:52
redmsb,hit under the water line,2019-01-22 21:41:53
quick_ng,what is wrong with people,2019-01-22 21:41:53
drbart,stream snypahs,2019-01-22 21:41:54
mymindspray,"oh my god watch the ladders, dont let get on with the barrel",2019-01-22 21:41:54
jmcgov14,looking like i knew lobby,2019-01-22 21:41:56
shepeachy,sink that shit!,2019-01-22 21:41:58
carelxsss,did my dono go through,2019-01-22 21:42:03
proxxies,l8r gamr,2019-01-22 21:42:16
sirryxn,smile check :),2019-01-22 21:42:16
texa,hi gamer :),2019-01-22 21:42:19
bajapanti_,stream snipers monkatos,2019-01-22 21:42:19
sirryxn,:),2019-01-22 21:42:22
itsantonman92,be careful :d,2019-01-22 21:42:22
flashey,hello gamer,2019-01-22 21:42:24
jmcgov14,:),2019-01-22 21:42:24
aiakuma,wait what game is this :d,2019-01-22 21:42:25
whonderbread,:) im a gamer too,2019-01-22 21:42:26
manduttan,hahaha,2019-01-22 21:42:26
noahf25,:),2019-01-22 21:42:27
bigspur101,ship sunk,2019-01-22 21:42:28
nanonano,gamer :P,2019-01-22 21:42:29
flashey,oh.. bye gamer,2019-01-22 21:42:30
barbxlahey,hello gamers :),2019-01-22 21:42:31
greatmight656,:),2019-01-22 21:42:32
fortniteis_litbro5,ninja is the,2019-01-22 21:42:32
itsantonman92,girls aren't games?,2019-01-22 21:42:34
ghostchantt,if they sunk your ship then you can't doing anything about it,2019-01-22 21:42:35
aiakuma,kk,2019-01-22 21:42:37
nanonano,sunk :P,2019-01-22 21:42:38
jmcgov14,just long load,2019-01-22 21:42:42
texa,you got sunk :d,2019-01-22 21:42:47
barbxlahey,no,2019-01-22 21:42:48
texa,oof,2019-01-22 21:42:49
adearx,stream snipping is a huge problem on this game,2019-01-22 21:42:52
bajapanti_,greedy,2019-01-22 21:42:52
jimmyouidiot,its loading your new ship,2019-01-22 21:42:52
jcostas76,sunk,2019-01-22 21:42:52
faded_fella420,rip,2019-01-22 21:42:54
kemli,there goes that skull,2019-01-22 21:42:58
greatmight656,:(,2019-01-22 21:43:06
thetankcr3,:(,2019-01-22 21:43:07
spaceetime,hey guys,2019-01-22 21:43:13
the_k_train,u just had your first 1g experience laughing my ass off,2019-01-22 21:43:16
johnnymack96,rip skull 2019-2019,2019-01-22 21:43:18
shepeachy,awwww,2019-01-22 21:43:18
bajapanti_,greedy :(,2019-01-22 21:43:24
twitzh,did avid just use the word oof? hahaa,2019-01-22 21:43:25
quick_ng,sail back to him,2019-01-22 21:43:29
nanonano,booty are gone booty are gone booty are gone,2019-01-22 21:43:29
texa,what in the hell is an avid,2019-01-22 21:43:35
bajapanti_,how much loot did they lose? $,2019-01-22 21:43:37
kumarwest,go sypher!!,2019-01-22 21:43:38
adearx,@the_k_train right . summit knkw how annoying it is,2019-01-22 21:43:41
probablymylastlogin,they approx where he is,2019-01-22 21:43:49
reverendtom,ninja needs to learn the sword lunge,2019-01-22 21:43:53
twitzh,its like an really old overused meme texa,2019-01-22 21:43:56
smaza_xd,why don't you just go to syph on the ship,2019-01-22 21:43:59
texa,oof,2019-01-22 21:44:02
shuyaku_,we back chat,2019-01-22 21:44:04
nanonano,streamer mode coming on feb 7th,2019-01-22 21:44:05
mannuck2469,check how far the ship is from crooked masts,2019-01-22 21:44:09
rdhixd,why is ninja doing entertaining stuff exactly when i need to be working,2019-01-22 21:44:10
kurokyoki,go pick him up?,2019-01-22 21:44:12
mlgneo,nice jug ninj,2019-01-22 21:44:15
kara_ewen,sea of theives!,2019-01-22 21:44:16
colateralmovements,this is so refreshing. fortnite was getting tough to watch,2019-01-22 21:44:20
texa,:d @rdhixd,2019-01-22 21:44:20
mikemakesitnasty,was that summit on the ship?,2019-01-22 21:44:22
noahf25,@nanonano thats my bday:),2019-01-22 21:44:28
mannuck2469,check where the ship spawned. and how close to crooked masts they are,2019-01-22 21:44:37
freedentalwork,no just some of his fans,2019-01-22 21:44:39
thetankcr3,ohhhhh,2019-01-22 21:44:40
kurokyoki,crooked masts,2019-01-22 21:44:46
helfon1,you were at crooked masts,2019-01-22 21:44:47
the_k_train,@rdhixd :d,2019-01-22 21:44:49
mannuck2469,crooked masts,2019-01-22 21:44:49
thetankcr3,pls find the megalodon,2019-01-22 21:44:49
adearx,@mikemakesitnasty no summit usually tucks and will fight last,2019-01-22 21:44:49
so_icey1017,row boat?,2019-01-22 21:44:49
nanonano,@noahf25 :),2019-01-22 21:44:51
ghostchantt,oof originates from overwatch anytime you got whooped,2019-01-22 21:44:55
jimmyouidiot,sunken grove,2019-01-22 21:44:59
niri9177,go get the row boat,2019-01-22 21:45:00
mymindspray,put the sails at half chub,2019-01-22 21:45:03
rdhixd,"@texa literally have 2 days before my deadline, should have start years ago, sit in the library and hes playing this",2019-01-22 21:45:05
flashey,arrghh no man be left behind :),2019-01-22 21:45:05
tnick502,crooked mast,2019-01-22 21:45:11
logangames13,hi,2019-01-22 21:45:12
faded_fella420,@ghostchantt what does??,2019-01-22 21:45:13
twitzh,oof originates from 13 yr olds hahaa,2019-01-22 21:45:15
the_k_train,i thought oof began in minecraft?,2019-01-22 21:45:17
njack303,38000 people r watching this shiit oh ma rip,2019-01-22 21:45:17
texa,lmaoo i feel for you @rdhixd,2019-01-22 21:45:19
noahf25,@nanonano,2019-01-22 21:45:22
fssk_chimpy,is ninja still apart of luminosity?,2019-01-22 21:45:29
noahf25,:d,2019-01-22 21:45:30
shuyaku_,i'm a shroud sub and i went into his stream for a second for people in chat to be criticizing ninja for playing sot,2019-01-22 21:45:31
texa,stop hating you walnut @twitzh,2019-01-22 21:45:35
daredevil_rl,sxsw,2019-01-22 21:45:48
juan_czena,ya got sunk take the headband off,2019-01-22 21:45:48
kara_ewen,whos he playing with? sypher and ?,2019-01-22 21:45:53
secseabeast,i am 12 but look 13,2019-01-22 21:45:55
ghostchantt,@twitzh they didn't originate it they just adopted it :/,2019-01-22 21:45:56
relentlessbandit,once syph get the loot on the rowboat tell him to sail it toward your cardinal direction,2019-01-22 21:45:56
nanonano,rescue mission :),2019-01-22 21:45:58
shuyaku_,sypher and lupo,2019-01-22 21:46:00
texa,:d @juan_czena,2019-01-22 21:46:04
ghostchantt,and then ultimately wore it out,2019-01-22 21:46:05
kara_ewen,thanks,2019-01-22 21:46:05
jbeastwins,"if nick played this he would run around yelling at his teammates, half ammo??",2019-01-22 21:46:23
whobud,i dont think ive ever been in another stream where ninja doesnt eventually come up,2019-01-22 21:46:23
nanonano,they probably had nothing,2019-01-22 21:46:29
mannuck2469,satraight to the storm laughing my ass off this will be interesting,2019-01-22 21:46:33
kemli,@twitzh i mean mozart wrote his first comp at 5 soooo,2019-01-22 21:46:34
jeffr4334,these guy are bots,2019-01-22 21:46:35
trippyxbreezy,sarles of thieves baby,2019-01-22 21:46:38
str3at,your game is 2 dark @ninja,2019-01-22 21:46:39
jspar10,naughty naughty kool-aid,2019-01-22 21:46:40
xmvd77z,:d,2019-01-22 21:46:41
johnnymack96,@jbeastwins :d,2019-01-22 21:46:42
texa,storm monkaw,2019-01-22 21:46:46
xlr3dlx,noobs,2019-01-22 21:46:49
whobud,captain nick would be insufferable,2019-01-22 21:46:51
xxmagnus_headshotxx,whats name in this game,2019-01-22 21:46:52
faded_fella420,pepehands,2019-01-22 21:46:57
nick_van07,new camera is sexy,2019-01-22 21:47:05
kemli,well they gonna die. yup.,2019-01-22 21:47:07
mannuck2469,:d gl in the storm... 2 new players on a galleon... stoked,2019-01-22 21:47:08
texa,idk hes on some random acct @xxmagnus_headshotxx,2019-01-22 21:47:08
xmvd77z,im mvd,2019-01-22 21:47:09
papablessyew,dont you take on water in storms?,2019-01-22 21:47:15
aztecangoddess,storm comin,2019-01-22 21:47:19
xxmagnus_headshotxx,ok thanks,2019-01-22 21:47:26
xmvd77z,how guys,2019-01-22 21:47:27
mannuck2469,better get buckjeting,2019-01-22 21:47:28
xlr3dlx,yall are doing circles,2019-01-22 21:47:29
the_k_train,you might have to with the contrast on your capture card to make it less dark. if you only do brightness it washes out,2019-01-22 21:47:29
hyperfrinzy_yt,@xxmagnus_headshotxx its like funniestnine,2019-01-22 21:47:33
juan_czena,@jbeastwins nick would be asking who would win a fight between a kraken and a megladon,2019-01-22 21:47:35
rdhixd,did ninja say hes gonna regularly be playing this?,2019-01-22 21:47:37
nanonano,sinking,2019-01-22 21:47:37
og_cyrax,@texa gotta get this account a halo 3 50 laughing my ass off,2019-01-22 21:47:44
kurokyoki,rock!!,2019-01-22 21:47:45
ghostchantt,"hey at least he learned to turn his hud off, even though unfortunately the hud is really helpful for newer players",2019-01-22 21:47:46
texa,:d,2019-01-22 21:47:54
nanonano,holes bottom deck,2019-01-22 21:47:55
whobud,@juan_czena what up fam,2019-01-22 21:48:03
mparkex,"holes, patch it upppp",2019-01-22 21:48:05
juju_namaste,this makes me laugh :d,2019-01-22 21:48:10
aztecangoddess,hard port side ! :( @ninja,2019-01-22 21:48:15
jbeastwins,@juan_czena :d i could see that,2019-01-22 21:48:15
xdoug225,y no fortnite,2019-01-22 21:48:16
iimtaasty,fix first!!!,2019-01-22 21:48:20
evanftb73,yall need a brig galleon is too big,2019-01-22 21:48:27
faded_fella420,@xdoug225 he played earlier,2019-01-22 21:48:38
trippyxbreezy,this game is really good,2019-01-22 21:48:41
juan_czena,@ninja just build!,2019-01-22 21:48:46
aztecangoddess,white caps,2019-01-22 21:48:46
adearx,we ben,2019-01-22 21:48:49
sirdropsalot12,aww ninja didnt get the cameras switched,2019-01-22 21:48:55
jackmc38,fix all holes first,2019-01-22 21:48:56
xmvd77z,oh,2019-01-22 21:49:03
trippyxbreezy,his room is dark,2019-01-22 21:49:14
shouldercat,hey bab @bubblecough,2019-01-22 21:49:14
xlr3dlx,:d,2019-01-22 21:49:19
kemli,"yea the new are in though @sirdropsalot12 ,they look tight",2019-01-22 21:49:22
whobud,drbucket,2019-01-22 21:49:30
sirryxn,omegalul,2019-01-22 21:49:31
ninjabot999,how is this after dark when its 3:49?,2019-01-22 21:49:32
texa,omegalul,2019-01-22 21:49:34
nanonano,summit chat :( stop imbarrassing summit,2019-01-22 21:49:35
sirryxn,--> just sub,2019-01-22 21:49:49
kineticwolf911,:d,2019-01-22 21:49:51
bubblecough,hey babs,2019-01-22 21:49:55
aztecangoddess,@ninjabot999 cuz adult language,2019-01-22 21:49:55
xlr3dlx,did tim get off???,2019-01-22 21:49:58
2x2is_4,hi,2019-01-22 21:50:00
so_icey1017,:d,2019-01-22 21:50:04
gand2479,@xlr3dlx sadly,2019-01-22 21:50:08
webb034,thats what she said,2019-01-22 21:50:08
kemli,:d,2019-01-22 21:50:10
ninjabot999,oh i see,2019-01-22 21:50:10
juan_czena,pimpin aint easy,2019-01-22 21:50:11
cr3amwh3at,that's what she said,2019-01-22 21:50:12
spectris_,yall need a 4th :d,2019-01-22 21:50:16
aztecangoddess,@kemli did tim get off ?,2019-01-22 21:50:22
xlr3dlx,yea get the brigantine,2019-01-22 21:50:27
kemli,@aztecangoddess yeap,2019-01-22 21:50:32
jjjack,chat fortnite or sot?? which is better,2019-01-22 21:50:33
dooshcanoee,you can 3 man galleys,2019-01-22 21:50:33
mikemakesitnasty,how do you customize your boat?,2019-01-22 21:50:34
nanonano,"nono, have to back out",2019-01-22 21:50:39
rich_troll,:(,2019-01-22 21:50:40
xlr3dlx,yessss cash in,2019-01-22 21:50:41
aztecangoddess,aaweee,2019-01-22 21:50:43
caleboc5665,this game is great,2019-01-22 21:50:45
nelsondal3,zoom,2019-01-22 21:50:45
shuyaku_,i love this game,2019-01-22 21:50:49
aztecangoddess,@kemli thanks fam,2019-01-22 21:50:51
twitzh,jjjack its completely different games.,2019-01-22 21:50:52
xlr3dlx,yea outpost,2019-01-22 21:50:57
sirdropsalot12,to watch fortnite but its good to have a change thats not ff,2019-01-22 21:50:57
kemli,word @aztecangoddess,2019-01-22 21:50:59
nick_van07,thats weast,2019-01-22 21:51:04
mishilo,i legit wish i had this game on mobile :d,2019-01-22 21:51:07
kemli,:d,2019-01-22 21:51:11
kurokyoki,um the music seems to be more upbeat!?,2019-01-22 21:51:13
mishilo,id play it all day :d,2019-01-22 21:51:15
proxxies,floor it,2019-01-22 21:51:19
nanonano,straight west,2019-01-22 21:51:24
danielwh76,yo boi,2019-01-22 21:51:25
probablymylastlogin,the music changes based on situations reallllly well,2019-01-22 21:51:27
trippyxbreezy,shoot it,2019-01-22 21:51:28
w4lk1ngi34d,just build :d,2019-01-22 21:51:31
sirryxn,music change,2019-01-22 21:51:32
keyyhun,what the fuck is this game??,2019-01-22 21:51:34
figjam300,drlupo call me a hooker?,2019-01-22 21:51:35
noahf25,the poopdeck,2019-01-22 21:51:38
greatmight656,go weast,2019-01-22 21:51:43
amhash1,west? i thought meant weast!,2019-01-22 21:51:44
caleboc5665,is this sponsored,2019-01-22 21:51:52
toxic_hazard12,whats ninja drinking,2019-01-22 21:51:54
xlr3dlx,that skull fort has 35k worth of loot,2019-01-22 21:51:57
metusthefetus,oh my god what are the chances. i just started downloading this game,2019-01-22 21:51:58
kemli,:d,2019-01-22 21:51:59
twitzh,yikes,2019-01-22 21:52:04
gameofjones22,shit ?,2019-01-22 21:52:11
mishilo,arrrghhh be drinkin a whiskey from yee grog,2019-01-22 21:52:13
nanonano,"@caleboc5665 no, not sponsored",2019-01-22 21:52:14
mangophone,aren't npc's specifically for talking shit to?,2019-01-22 21:52:22
papablessyew,@gameofjones22 ninja after dark,2019-01-22 21:52:22
jaydub80,yea whats he drinking,2019-01-22 21:52:22
lessthankris,im loving all the sea of thieves love lately,2019-01-22 21:52:23
ravagedsociety,they need to add rogue waves to this,2019-01-22 21:52:30
nanonano,arrrr,2019-01-22 21:52:33
w4lk1ngi34d,:d,2019-01-22 21:52:33
gameofjones22,@papablessyew hah i,2019-01-22 21:52:34
so_icey1017,:d yes,2019-01-22 21:52:38
nanonano,:(,2019-01-22 21:52:46
kellogs21,haha yes! fortnite final fantasy and now this....! fuck yeah!!!,2019-01-22 21:52:51
evilhamsterent,god watching this then watching summit really shows you this game has a bigger skill gap than fortnite haha,2019-01-22 21:52:51
dadadavis,label free beer! nothing tastes better than not getting sued,2019-01-22 21:52:52
fssk_chimpy,have they found a megaladon yet?,2019-01-22 21:52:53
so_icey1017,ahhh sea turtles,2019-01-22 21:52:56
nanonano,rip :(,2019-01-22 21:53:00
zyphxo,we need a pirate ninja emote,2019-01-22 21:53:01
shepeachy,@fssk_chimpy no.,2019-01-22 21:53:02
mannuck2469,you all should have seen the developer live stream earlier. everyone spammed ninja is downloading sea of thieves and they all clearly panicked,2019-01-22 21:53:07
logangames13,what are they trying to find,2019-01-22 21:53:11
sirryxn,pepega,2019-01-22 21:53:19
mishilo,loool,2019-01-22 21:53:22
kattycool1999,:d,2019-01-22 21:53:24
scifn,this game is fun to play but not to watch,2019-01-22 21:53:24
aztecangoddess,that music,2019-01-22 21:53:25
kumarwest,:d,2019-01-22 21:53:25
kemli,:d,2019-01-22 21:53:26
blackhammer69er,lol! tim bell,2019-01-22 21:53:26
xlr3dlx,shoot yourself out the cannon,2019-01-22 21:53:26
faded_fella420,sus,2019-01-22 21:53:29
pikespeed,this is as boring as....,2019-01-22 21:53:30
riproar,"oh, man",2019-01-22 21:53:30
whonderbread,ninjapride,2019-01-22 21:53:30
xplosion1996,:d,2019-01-22 21:53:33
papablessyew,@evilhamsterent how can you even compare the 2 games hahah,2019-01-22 21:53:33
mublacksmith,"i had a nap, how long has he been playing sot>",2019-01-22 21:53:35
theunforgiver,cant even say gay because its not allowed??,2019-01-22 21:53:35
kineticwolf911,vote lupo to the brig,2019-01-22 21:53:35
nanonano,((())) :P,2019-01-22 21:53:40
whonderbread,crinjapride,2019-01-22 21:53:40
barbxlahey,crinjapride,2019-01-22 21:53:41
flashey,kappaprode,2019-01-22 21:53:42
lil_gully,@ninja get jaydee in here,2019-01-22 21:53:43
goskatez,no,2019-01-22 21:53:44
thetankcr3,:),2019-01-22 21:53:54
evilhamsterent,@papablessyew im comparing skill gap not the games,2019-01-22 21:53:55
azimm07,:),2019-01-22 21:53:56
gingersnapcwby,:),2019-01-22 21:53:59
logangames13,. join porn,2019-01-22 21:54:03
suffer_n,ninjarare,2019-01-22 21:54:07
nanonano,((())),2019-01-22 21:54:08
kemli,find the primes,2019-01-22 21:54:11
kineticwolf911,vote lupo to the brig,2019-01-22 21:54:13
phambam25,lbgtq+ actually,2019-01-22 21:54:15
lessthankris,everytime the bell rings a subscriber gets its,2019-01-22 21:54:17
mooreduplicator,i'm subscribed ninja,2019-01-22 21:54:17
minimacuk,llul,2019-01-22 21:54:18
goskatez,sub bell!,2019-01-22 21:54:19
whobud,mods gotta be on their toes,2019-01-22 21:54:19
kara_ewen,:d,2019-01-22 21:54:20
thetankcr3,hell,2019-01-22 21:54:22
papablessyew,@evilhamsterent by compaing skill gap youre comparing the games hahah,2019-01-22 21:54:28
champi0n,:d,2019-01-22 21:54:29
wheels03,episode i :p,2019-01-22 21:54:29
greatmight656,ring those bells!,2019-01-22 21:54:30
goskatez,:d,2019-01-22 21:54:30
twitch_xelijahx,@kemli what the bad laugage for ?,2019-01-22 21:54:32
kellogs21,hah bring in the subs!,2019-01-22 21:54:34
xlr3dlx,shoot yourself out of the cannon,2019-01-22 21:54:35
blessedjake,hi,2019-01-22 21:54:41
blessedjake,i did a thing,2019-01-22 21:54:48
whobud,@aztecangoddess haha that emote kills mw,2019-01-22 21:54:51
kemli,what's up ? @twitch_xelijahx,2019-01-22 21:54:52
slaydimes,y'all so bad at porting,2019-01-22 21:54:55
nanonano,navigator,2019-01-22 21:54:56
chris15620,good game i was the bell,2019-01-22 21:55:00
fanderma,this game is so funny :),2019-01-22 21:55:00
adonnis11,pokcharizard,2019-01-22 21:55:06
phatyikes,i love the new cam and mic/audio!,2019-01-22 21:55:10
kineticwolf911,vote lupo brig,2019-01-22 21:55:15
aztecangoddess,@whobud issa good one right!,2019-01-22 21:55:17
kara_ewen,thats a guy,2019-01-22 21:55:29
twitch_xelijahx,@kemli why he cursing,2019-01-22 21:55:30
texa,:d,2019-01-22 21:55:30
raider_tommy,it,2019-01-22 21:55:30
greatmight656,:d they sank,2019-01-22 21:55:31
johnofthejungle,i want to play this game now,2019-01-22 21:55:31
xlr3dlx,every one gets the same,2019-01-22 21:55:32
mannuck2469,mermaid gems should always go to order of souls. its the hardest to levell up,2019-01-22 21:55:32
whobud,its perfect!,2019-01-22 21:55:33
blontz,:d,2019-01-22 21:55:33
minimacuk,:d,2019-01-22 21:55:34
aztecangoddess,musket sniper ?,2019-01-22 21:55:36
kara_ewen,i think,2019-01-22 21:55:36
luedawg,:d,2019-01-22 21:55:37
mublacksmith,tbh zylbrad and his gang are the kings of this game,2019-01-22 21:55:37
nick_van07,its a person,2019-01-22 21:55:38
mymindspray,omegalul,2019-01-22 21:55:43
goskatez,:d,2019-01-22 21:55:44
kaufma764,the skull in the captains room,2019-01-22 21:55:45
nanonano,it's a girllll,2019-01-22 21:55:45
14ms14,girl,2019-01-22 21:55:46
jbiue,:(,2019-01-22 21:55:46
whonderbread,loooooool,2019-01-22 21:55:46
kemli,@twitch_xelijahx it's pirate time and it's after dark,2019-01-22 21:55:48
obnxwigsnatcher,ugly as hell laughing my ass off,2019-01-22 21:55:49
papablessyew,@twitch_xelijahx because he can. its after dark,2019-01-22 21:55:50
itsantonman92,im on that mollie :d,2019-01-22 21:55:50
caboose413,:d,2019-01-22 21:55:51
manduttan,hahaha,2019-01-22 21:55:51
14ms14,girlll,2019-01-22 21:55:52
zyphxo,its a girl,2019-01-22 21:55:54
blontz,oh my god lolol,2019-01-22 21:55:54
kemli,yes it's a lady,2019-01-22 21:55:54
kaufma764,the skull in the captains room.,2019-01-22 21:55:54
hunter_hahaha21,migos,2019-01-22 21:55:55
pppeaches,gender neutral ninj,2019-01-22 21:55:55
kineticwolf911,look at the cheast,2019-01-22 21:55:55
jeperry,:d,2019-01-22 21:55:56
rdhixd,thhhhiiiccccc,2019-01-22 21:55:56
ravagedsociety,transgender,2019-01-22 21:55:57
whonderbread,bahahahahahaha,2019-01-22 21:55:58
14ms14,bitch ugly,2019-01-22 21:55:58
masterxpimp,hahaha hahah,2019-01-22 21:55:59
logand300,:d,2019-01-22 21:55:59
hunter_hahaha21,thats quavo,2019-01-22 21:56:00
purpleunicorn69x,lil inspection :d,2019-01-22 21:56:01
dub_dubb,its a lady,2019-01-22 21:56:01
aorta73,the face she gave you lmaooo,2019-01-22 21:56:03
twitch_xelijahx,oh ok,2019-01-22 21:56:03
thetankcr3,:d,2019-01-22 21:56:03
rualecreatures6,":d ""is that a guy? or is that a girl? i dont just get out of here""",2019-01-22 21:56:04
dr_tronz,:d,2019-01-22 21:56:04
arianadunlop69,its ma'am,2019-01-22 21:56:04
kaufma764,the skull in the captains room?!,2019-01-22 21:56:06
masonhunter126,+-+,2019-01-22 21:56:07
godslayerhawk,:d,2019-01-22 21:56:08
kemli,thiccspection :d,2019-01-22 21:56:10
shepeachy,quavo lmaoooo,2019-01-22 21:56:11
amhash1,:d,2019-01-22 21:56:13
mublacksmith,don't assume their gender,2019-01-22 21:56:13
luedawg,@arianadunlop69 :d,2019-01-22 21:56:14
kaufma764,the skull in the captains room,2019-01-22 21:56:16
sirryxn,pepepls,2019-01-22 21:56:16
lil_kraby234,trans,2019-01-22 21:56:17
trevtec,i need your corporate number,2019-01-22 21:56:19
texa,:d,2019-01-22 21:56:20
aztecangoddess,:d what the fuck,2019-01-22 21:56:20
417ahymowitz,thats tupac,2019-01-22 21:56:21
og_cyrax,dont assume its gender!!! :),2019-01-22 21:56:23
sirryxn,chat groove pepepls,2019-01-22 21:56:24
masonhunter126,:(,2019-01-22 21:56:25
kara_ewen,o,2019-01-22 21:56:26
kaufma764,the skull in the captains room,2019-01-22 21:56:26
tropictm,this is so fun to watch,2019-01-22 21:56:28
thetankcr3,this is one of the streamers ever lmaooooo,2019-01-22 21:56:28
lilxanisbetterthantupac,lolll,2019-01-22 21:56:31
imtiz,what a beautiful game,2019-01-22 21:56:32
faded_fella420,@trevtec its maam,2019-01-22 21:56:33
rich_troll,479-264-6800,2019-01-22 21:56:37
2x2is_4,i subscribed how do i get on the discord,2019-01-22 21:56:38
probablymylastlogin,he wasnt assuming thats why he was inspecting,2019-01-22 21:56:38
monkeybizness18,sea of theives is he new fortnite,2019-01-22 21:56:43
tropictm,wait he forgot skull??,2019-01-22 21:56:45
makavelii04,its 2019 its ok,2019-01-22 21:56:47
lil_kraby234,that skull in the captains quarters,2019-01-22 21:56:49
sirryxn,@2x2is_4 gg/ninja,2019-01-22 21:56:52
nanonano,:),2019-01-22 21:56:55
tw1nk1iam,pokpikachu pokpikachu pokpikachu,2019-01-22 21:56:56
redmsb,the skull sank,2019-01-22 21:56:57
probablymylastlogin,@tropictm skull is at the bottom of the ocean,2019-01-22 21:57:02
loro2705,hi mate,2019-01-22 21:57:06
manduttan,skull sank,2019-01-22 21:57:07
pikespeed,yawn....,2019-01-22 21:57:07
nanonano,:),2019-01-22 21:57:08
tropictm,that skull is worth 1.5k laughing my ass off,2019-01-22 21:57:11
chris15620,the skuuulllllll,2019-01-22 21:57:11
gentle_bandit,it's maam sir,2019-01-22 21:57:12
thetankcr3,@2x2is_4 type !discord,2019-01-22 21:57:15
zyphxo,theyll probably get better loot than that one skull chat,2019-01-22 21:57:16
tropictm,and they just forget it,2019-01-22 21:57:17
dssstw,hi,2019-01-22 21:57:18
ryangabriele77,so is sea of thieves popping again,2019-01-22 21:57:25
kara_ewen,hellooooooooo,2019-01-22 21:57:25
pizzaplayz946,skullllllllll,2019-01-22 21:57:27
kmart301,what are they doing now?,2019-01-22 21:57:28
kineticwolf911,i love you,2019-01-22 21:57:29
hunter_hahaha21,telling you that was quavo man,2019-01-22 21:57:29
sirryxn,pepepls,2019-01-22 21:57:31
tropictm,@ryangabriele77 yes,2019-01-22 21:57:31
gand2479,40k pog,2019-01-22 21:57:37
mishilo,i love this game so much,2019-01-22 21:57:54
tommy_dv,funniestnine?\,2019-01-22 21:57:54
ukc_moya,we did it :),2019-01-22 21:57:57
redmsb,"this is a funny stream im not going to lie , excellent entertainment",2019-01-22 21:58:01
sirryxn,pepepls,2019-01-22 21:58:03
pigdon,cheer500 hey ninja! huge fan i have a 2kd and of scrim wina do you think theres any chance we can duo sometime?,2019-01-22 21:58:06
zyphxo,ninja bot isnt subbed omegalul,2019-01-22 21:58:06
legomyche,hey,2019-01-22 21:58:08
probablymylastlogin,kids just got home from school on the east coast,2019-01-22 21:58:10
tropictm,@mishilo same,2019-01-22 21:58:14
kemli,hahaha,2019-01-22 21:58:14
chris15620,you forgot the skull ninja,2019-01-22 21:58:14
mishilo,loool,2019-01-22 21:58:14
kineticwolf911,i love you,2019-01-22 21:58:23
kara_ewen,lulw,2019-01-22 21:58:27
probablymylastlogin,guys he didnt forget the fuckin skull. the ship sank.,2019-01-22 21:58:36
hunter_hahaha21,i swear i cant believe how much that looked like quavo :P,2019-01-22 21:58:40
nanonano,shopping time :),2019-01-22 21:58:53
mishilo,"@tropictm cant wait for the arena update, plus they said there is some other stuff in the works",2019-01-22 21:58:56
w4lk1ngi34d,:d must be so small can't see it behind the pearl,2019-01-22 21:58:59
lyndon94,holy shit i got so happy when i was saw ninja playing sot,2019-01-22 21:59:21
greatmight656,naked men on the,2019-01-22 21:59:28
rdhixd,thats so me dude :d,2019-01-22 21:59:31
mublacksmith,you can get drunk in this game and,2019-01-22 21:59:36
whobud,this must be an drunk game,2019-01-22 21:59:37
rualecreatures6,i would love it :d,2019-01-22 21:59:39
mishilo,:(,2019-01-22 21:59:42
texa,laughing my ass off,2019-01-22 21:59:46
w4lk1ngi34d,:d,2019-01-22 21:59:46
iiheatedcobra,:d,2019-01-22 21:59:47
mishilo,lmfaooo,2019-01-22 21:59:47
champi0n,:d,2019-01-22 21:59:50
syndicate318,lmfao,2019-01-22 21:59:51
whonderbread,pog,2019-01-22 21:59:52
iiheatedcobra,ooooooo,2019-01-22 21:59:52
kara_ewen,hah,2019-01-22 21:59:54
xxgopuuxx,pog,2019-01-22 21:59:56
iiheatedcobra,ninja is coming back,2019-01-22 21:59:57
xplosion1996,:d,2019-01-22 21:59:58
pikespeed,when daequan stream?,2019-01-22 21:59:59
coocamunga,no gucci hoodie unfortunately,2019-01-22 22:00:00
crissandcasey,he said the work,2019-01-22 22:00:00
rdhixd,what the fuck you say to me ninj,2019-01-22 22:00:02
sirryxn,you kiss your mother with that mouth? @ninja,2019-01-22 22:00:02
thetankcr3,the fuck you say to me,2019-01-22 22:00:02
iiheatedcobra,he said shit,2019-01-22 22:00:04
dr_tronz,mooooooom,2019-01-22 22:00:05
aztecangoddess,looks just like you senpai :),2019-01-22 22:00:06
gentle_bandit,:d,2019-01-22 22:00:07
crissandcasey,*word,2019-01-22 22:00:08
iiheatedcobra,mooom he said shit,2019-01-22 22:00:09
crissandcasey,the f you say to me,2019-01-22 22:00:15
texa,laughing my ass off its after dark chat,2019-01-22 22:00:16
figjam300,thats a banned word,2019-01-22 22:00:17
aztecangoddess,the you just say,2019-01-22 22:00:21
zaby42,just say it,2019-01-22 22:00:21
iiheatedcobra,@texa i know,2019-01-22 22:00:24
thetankcr3,its after daaaaaaark oh my god chat so stoopid,2019-01-22 22:00:25
sourpatchblondie,ooooh i like this game,2019-01-22 22:00:29
zyphxo,the f you say to me,2019-01-22 22:00:30
sirryxn,i said i said you kiss your mother with that fuckin mouth?,2019-01-22 22:00:33
greatmight656,mommy he said a bad word,2019-01-22 22:00:41
twitzh,chat hahaa,2019-01-22 22:00:42
whobud,pink dont care fam,2019-01-22 22:00:43
zaby42,say the whole thing for old times sake.,2019-01-22 22:00:44
mishilo,whole sot community gonna rant on reddit about being toxic now :),2019-01-22 22:00:46
nanonano,:P,2019-01-22 22:00:49
themosquito44,eww,2019-01-22 22:00:52
lyndon94,what is he drinking,2019-01-22 22:00:55
iiheatedcobra,he drinking yak?,2019-01-22 22:00:56
masterxpimp,"the ninja is after dark ninja, type y is u agree",2019-01-22 22:00:56
rdhixd,what the hell is he drinking,2019-01-22 22:00:57
figjam300,get hammered ninjarare,2019-01-22 22:00:59
gentle_bandit,":d ""moommm ninja said the fuck you say to me""",2019-01-22 22:00:59
sourpatchblondie,sip sip,2019-01-22 22:01:02
danmessner,y,2019-01-22 22:01:04
mattyfresh68,y,2019-01-22 22:01:04
deliminionarmy,y,2019-01-22 22:01:08
